<?xml version="1.0" encoding="utf-8" standalone="no"?>
<!DOCTYPE svg PUBLIC "-//W3C//DTD SVG 1.1//EN"
  "http://www.w3.org/Graphics/SVG/1.1/DTD/svg11.dtd">
<!-- Created with matplotlib (https://matplotlib.org/) -->
<svg height="841.68pt" version="1.1" viewBox="0 0 1190.16 841.68" width="1190.16pt" xmlns="http://www.w3.org/2000/svg" xmlns:xlink="http://www.w3.org/1999/xlink">
 <defs>
  <style type="text/css">
*{stroke-linecap:butt;stroke-linejoin:round;}
  </style>
 </defs>
 <g id="figure_1">
  <g id="patch_1">
   <path d="M 0 841.68 
L 1190.16 841.68 
L 1190.16 0 
L 0 0 
z
" style="fill:#ffffff;"/>
  </g>
  <g id="axes_1">
   <g id="patch_2">
    <path d="M 83.3112 328.2552 
L 1130.652 328.2552 
L 1130.652 42.084 
L 83.3112 42.084 
z
" style="fill:#ffffff;"/>
   </g>
   <g id="matplotlib.axis_1">
    <g id="xtick_1">
     <g id="line2d_1">
      <path clip-path="url(#pa829bb90d7)" d="M 130.9176 328.2552 
L 130.9176 42.084 
" style="fill:none;stroke:#b0b0b0;stroke-linecap:square;stroke-width:0.8;"/>
     </g>
     <g id="line2d_2">
      <defs>
       <path d="M 0 0 
L 0 3.5 
" id="m746f196453" style="stroke:#000000;stroke-width:0.8;"/>
      </defs>
      <g>
       <use style="stroke:#000000;stroke-width:0.8;" x="130.9176" xlink:href="#m746f196453" y="328.2552"/>
      </g>
     </g>
     <g id="text_1">
      <!-- 0 -->
      <defs>
       <path d="M 31.78125 66.40625 
Q 24.171875 66.40625 20.328125 58.90625 
Q 16.5 51.421875 16.5 36.375 
Q 16.5 21.390625 20.328125 13.890625 
Q 24.171875 6.390625 31.78125 6.390625 
Q 39.453125 6.390625 43.28125 13.890625 
Q 47.125 21.390625 47.125 36.375 
Q 47.125 51.421875 43.28125 58.90625 
Q 39.453125 66.40625 31.78125 66.40625 
z
M 31.78125 74.21875 
Q 44.046875 74.21875 50.515625 64.515625 
Q 56.984375 54.828125 56.984375 36.375 
Q 56.984375 17.96875 50.515625 8.265625 
Q 44.046875 -1.421875 31.78125 -1.421875 
Q 19.53125 -1.421875 13.0625 8.265625 
Q 6.59375 17.96875 6.59375 36.375 
Q 6.59375 54.828125 13.0625 64.515625 
Q 19.53125 74.21875 31.78125 74.21875 
z
" id="DejaVuSans-48"/>
      </defs>
      <g transform="translate(127.73635 342.853637)scale(0.1 -0.1)">
       <use xlink:href="#DejaVuSans-48"/>
      </g>
     </g>
    </g>
    <g id="xtick_2">
     <g id="line2d_3">
      <path clip-path="url(#pa829bb90d7)" d="M 249.9336 328.2552 
L 249.9336 42.084 
" style="fill:none;stroke:#b0b0b0;stroke-linecap:square;stroke-width:0.8;"/>
     </g>
     <g id="line2d_4">
      <g>
       <use style="stroke:#000000;stroke-width:0.8;" x="249.9336" xlink:href="#m746f196453" y="328.2552"/>
      </g>
     </g>
     <g id="text_2">
      <!-- 10 -->
      <defs>
       <path d="M 12.40625 8.296875 
L 28.515625 8.296875 
L 28.515625 63.921875 
L 10.984375 60.40625 
L 10.984375 69.390625 
L 28.421875 72.90625 
L 38.28125 72.90625 
L 38.28125 8.296875 
L 54.390625 8.296875 
L 54.390625 0 
L 12.40625 0 
z
" id="DejaVuSans-49"/>
      </defs>
      <g transform="translate(243.5711 342.853637)scale(0.1 -0.1)">
       <use xlink:href="#DejaVuSans-49"/>
       <use x="63.623047" xlink:href="#DejaVuSans-48"/>
      </g>
     </g>
    </g>
    <g id="xtick_3">
     <g id="line2d_5">
      <path clip-path="url(#pa829bb90d7)" d="M 368.9496 328.2552 
L 368.9496 42.084 
" style="fill:none;stroke:#b0b0b0;stroke-linecap:square;stroke-width:0.8;"/>
     </g>
     <g id="line2d_6">
      <g>
       <use style="stroke:#000000;stroke-width:0.8;" x="368.9496" xlink:href="#m746f196453" y="328.2552"/>
      </g>
     </g>
     <g id="text_3">
      <!-- 20 -->
      <defs>
       <path d="M 19.1875 8.296875 
L 53.609375 8.296875 
L 53.609375 0 
L 7.328125 0 
L 7.328125 8.296875 
Q 12.9375 14.109375 22.625 23.890625 
Q 32.328125 33.6875 34.8125 36.53125 
Q 39.546875 41.84375 41.421875 45.53125 
Q 43.3125 49.21875 43.3125 52.78125 
Q 43.3125 58.59375 39.234375 62.25 
Q 35.15625 65.921875 28.609375 65.921875 
Q 23.96875 65.921875 18.8125 64.3125 
Q 13.671875 62.703125 7.8125 59.421875 
L 7.8125 69.390625 
Q 13.765625 71.78125 18.9375 73 
Q 24.125 74.21875 28.421875 74.21875 
Q 39.75 74.21875 46.484375 68.546875 
Q 53.21875 62.890625 53.21875 53.421875 
Q 53.21875 48.921875 51.53125 44.890625 
Q 49.859375 40.875 45.40625 35.40625 
Q 44.1875 33.984375 37.640625 27.21875 
Q 31.109375 20.453125 19.1875 8.296875 
z
" id="DejaVuSans-50"/>
      </defs>
      <g transform="translate(362.5871 342.853637)scale(0.1 -0.1)">
       <use xlink:href="#DejaVuSans-50"/>
       <use x="63.623047" xlink:href="#DejaVuSans-48"/>
      </g>
     </g>
    </g>
    <g id="xtick_4">
     <g id="line2d_7">
      <path clip-path="url(#pa829bb90d7)" d="M 487.9656 328.2552 
L 487.9656 42.084 
" style="fill:none;stroke:#b0b0b0;stroke-linecap:square;stroke-width:0.8;"/>
     </g>
     <g id="line2d_8">
      <g>
       <use style="stroke:#000000;stroke-width:0.8;" x="487.9656" xlink:href="#m746f196453" y="328.2552"/>
      </g>
     </g>
     <g id="text_4">
      <!-- 30 -->
      <defs>
       <path d="M 40.578125 39.3125 
Q 47.65625 37.796875 51.625 33 
Q 55.609375 28.21875 55.609375 21.1875 
Q 55.609375 10.40625 48.1875 4.484375 
Q 40.765625 -1.421875 27.09375 -1.421875 
Q 22.515625 -1.421875 17.65625 -0.515625 
Q 12.796875 0.390625 7.625 2.203125 
L 7.625 11.71875 
Q 11.71875 9.328125 16.59375 8.109375 
Q 21.484375 6.890625 26.8125 6.890625 
Q 36.078125 6.890625 40.9375 10.546875 
Q 45.796875 14.203125 45.796875 21.1875 
Q 45.796875 27.640625 41.28125 31.265625 
Q 36.765625 34.90625 28.71875 34.90625 
L 20.21875 34.90625 
L 20.21875 43.015625 
L 29.109375 43.015625 
Q 36.375 43.015625 40.234375 45.921875 
Q 44.09375 48.828125 44.09375 54.296875 
Q 44.09375 59.90625 40.109375 62.90625 
Q 36.140625 65.921875 28.71875 65.921875 
Q 24.65625 65.921875 20.015625 65.03125 
Q 15.375 64.15625 9.8125 62.3125 
L 9.8125 71.09375 
Q 15.4375 72.65625 20.34375 73.4375 
Q 25.25 74.21875 29.59375 74.21875 
Q 40.828125 74.21875 47.359375 69.109375 
Q 53.90625 64.015625 53.90625 55.328125 
Q 53.90625 49.265625 50.4375 45.09375 
Q 46.96875 40.921875 40.578125 39.3125 
z
" id="DejaVuSans-51"/>
      </defs>
      <g transform="translate(481.6031 342.853637)scale(0.1 -0.1)">
       <use xlink:href="#DejaVuSans-51"/>
       <use x="63.623047" xlink:href="#DejaVuSans-48"/>
      </g>
     </g>
    </g>
    <g id="xtick_5">
     <g id="line2d_9">
      <path clip-path="url(#pa829bb90d7)" d="M 606.9816 328.2552 
L 606.9816 42.084 
" style="fill:none;stroke:#b0b0b0;stroke-linecap:square;stroke-width:0.8;"/>
     </g>
     <g id="line2d_10">
      <g>
       <use style="stroke:#000000;stroke-width:0.8;" x="606.9816" xlink:href="#m746f196453" y="328.2552"/>
      </g>
     </g>
     <g id="text_5">
      <!-- 40 -->
      <defs>
       <path d="M 37.796875 64.3125 
L 12.890625 25.390625 
L 37.796875 25.390625 
z
M 35.203125 72.90625 
L 47.609375 72.90625 
L 47.609375 25.390625 
L 58.015625 25.390625 
L 58.015625 17.1875 
L 47.609375 17.1875 
L 47.609375 0 
L 37.796875 0 
L 37.796875 17.1875 
L 4.890625 17.1875 
L 4.890625 26.703125 
z
" id="DejaVuSans-52"/>
      </defs>
      <g transform="translate(600.6191 342.853637)scale(0.1 -0.1)">
       <use xlink:href="#DejaVuSans-52"/>
       <use x="63.623047" xlink:href="#DejaVuSans-48"/>
      </g>
     </g>
    </g>
    <g id="xtick_6">
     <g id="line2d_11">
      <path clip-path="url(#pa829bb90d7)" d="M 725.9976 328.2552 
L 725.9976 42.084 
" style="fill:none;stroke:#b0b0b0;stroke-linecap:square;stroke-width:0.8;"/>
     </g>
     <g id="line2d_12">
      <g>
       <use style="stroke:#000000;stroke-width:0.8;" x="725.9976" xlink:href="#m746f196453" y="328.2552"/>
      </g>
     </g>
     <g id="text_6">
      <!-- 50 -->
      <defs>
       <path d="M 10.796875 72.90625 
L 49.515625 72.90625 
L 49.515625 64.59375 
L 19.828125 64.59375 
L 19.828125 46.734375 
Q 21.96875 47.46875 24.109375 47.828125 
Q 26.265625 48.1875 28.421875 48.1875 
Q 40.625 48.1875 47.75 41.5 
Q 54.890625 34.8125 54.890625 23.390625 
Q 54.890625 11.625 47.5625 5.09375 
Q 40.234375 -1.421875 26.90625 -1.421875 
Q 22.3125 -1.421875 17.546875 -0.640625 
Q 12.796875 0.140625 7.71875 1.703125 
L 7.71875 11.625 
Q 12.109375 9.234375 16.796875 8.0625 
Q 21.484375 6.890625 26.703125 6.890625 
Q 35.15625 6.890625 40.078125 11.328125 
Q 45.015625 15.765625 45.015625 23.390625 
Q 45.015625 31 40.078125 35.4375 
Q 35.15625 39.890625 26.703125 39.890625 
Q 22.75 39.890625 18.8125 39.015625 
Q 14.890625 38.140625 10.796875 36.28125 
z
" id="DejaVuSans-53"/>
      </defs>
      <g transform="translate(719.6351 342.853637)scale(0.1 -0.1)">
       <use xlink:href="#DejaVuSans-53"/>
       <use x="63.623047" xlink:href="#DejaVuSans-48"/>
      </g>
     </g>
    </g>
    <g id="xtick_7">
     <g id="line2d_13">
      <path clip-path="url(#pa829bb90d7)" d="M 845.0136 328.2552 
L 845.0136 42.084 
" style="fill:none;stroke:#b0b0b0;stroke-linecap:square;stroke-width:0.8;"/>
     </g>
     <g id="line2d_14">
      <g>
       <use style="stroke:#000000;stroke-width:0.8;" x="845.0136" xlink:href="#m746f196453" y="328.2552"/>
      </g>
     </g>
     <g id="text_7">
      <!-- 60 -->
      <defs>
       <path d="M 33.015625 40.375 
Q 26.375 40.375 22.484375 35.828125 
Q 18.609375 31.296875 18.609375 23.390625 
Q 18.609375 15.53125 22.484375 10.953125 
Q 26.375 6.390625 33.015625 6.390625 
Q 39.65625 6.390625 43.53125 10.953125 
Q 47.40625 15.53125 47.40625 23.390625 
Q 47.40625 31.296875 43.53125 35.828125 
Q 39.65625 40.375 33.015625 40.375 
z
M 52.59375 71.296875 
L 52.59375 62.3125 
Q 48.875 64.0625 45.09375 64.984375 
Q 41.3125 65.921875 37.59375 65.921875 
Q 27.828125 65.921875 22.671875 59.328125 
Q 17.53125 52.734375 16.796875 39.40625 
Q 19.671875 43.65625 24.015625 45.921875 
Q 28.375 48.1875 33.59375 48.1875 
Q 44.578125 48.1875 50.953125 41.515625 
Q 57.328125 34.859375 57.328125 23.390625 
Q 57.328125 12.15625 50.6875 5.359375 
Q 44.046875 -1.421875 33.015625 -1.421875 
Q 20.359375 -1.421875 13.671875 8.265625 
Q 6.984375 17.96875 6.984375 36.375 
Q 6.984375 53.65625 15.1875 63.9375 
Q 23.390625 74.21875 37.203125 74.21875 
Q 40.921875 74.21875 44.703125 73.484375 
Q 48.484375 72.75 52.59375 71.296875 
z
" id="DejaVuSans-54"/>
      </defs>
      <g transform="translate(838.6511 342.853637)scale(0.1 -0.1)">
       <use xlink:href="#DejaVuSans-54"/>
       <use x="63.623047" xlink:href="#DejaVuSans-48"/>
      </g>
     </g>
    </g>
    <g id="xtick_8">
     <g id="line2d_15">
      <path clip-path="url(#pa829bb90d7)" d="M 964.0296 328.2552 
L 964.0296 42.084 
" style="fill:none;stroke:#b0b0b0;stroke-linecap:square;stroke-width:0.8;"/>
     </g>
     <g id="line2d_16">
      <g>
       <use style="stroke:#000000;stroke-width:0.8;" x="964.0296" xlink:href="#m746f196453" y="328.2552"/>
      </g>
     </g>
     <g id="text_8">
      <!-- 70 -->
      <defs>
       <path d="M 8.203125 72.90625 
L 55.078125 72.90625 
L 55.078125 68.703125 
L 28.609375 0 
L 18.3125 0 
L 43.21875 64.59375 
L 8.203125 64.59375 
z
" id="DejaVuSans-55"/>
      </defs>
      <g transform="translate(957.6671 342.853637)scale(0.1 -0.1)">
       <use xlink:href="#DejaVuSans-55"/>
       <use x="63.623047" xlink:href="#DejaVuSans-48"/>
      </g>
     </g>
    </g>
    <g id="xtick_9">
     <g id="line2d_17">
      <path clip-path="url(#pa829bb90d7)" d="M 1083.0456 328.2552 
L 1083.0456 42.084 
" style="fill:none;stroke:#b0b0b0;stroke-linecap:square;stroke-width:0.8;"/>
     </g>
     <g id="line2d_18">
      <g>
       <use style="stroke:#000000;stroke-width:0.8;" x="1083.0456" xlink:href="#m746f196453" y="328.2552"/>
      </g>
     </g>
     <g id="text_9">
      <!-- 80 -->
      <defs>
       <path d="M 31.78125 34.625 
Q 24.75 34.625 20.71875 30.859375 
Q 16.703125 27.09375 16.703125 20.515625 
Q 16.703125 13.921875 20.71875 10.15625 
Q 24.75 6.390625 31.78125 6.390625 
Q 38.8125 6.390625 42.859375 10.171875 
Q 46.921875 13.96875 46.921875 20.515625 
Q 46.921875 27.09375 42.890625 30.859375 
Q 38.875 34.625 31.78125 34.625 
z
M 21.921875 38.8125 
Q 15.578125 40.375 12.03125 44.71875 
Q 8.5 49.078125 8.5 55.328125 
Q 8.5 64.0625 14.71875 69.140625 
Q 20.953125 74.21875 31.78125 74.21875 
Q 42.671875 74.21875 48.875 69.140625 
Q 55.078125 64.0625 55.078125 55.328125 
Q 55.078125 49.078125 51.53125 44.71875 
Q 48 40.375 41.703125 38.8125 
Q 48.828125 37.15625 52.796875 32.3125 
Q 56.78125 27.484375 56.78125 20.515625 
Q 56.78125 9.90625 50.3125 4.234375 
Q 43.84375 -1.421875 31.78125 -1.421875 
Q 19.734375 -1.421875 13.25 4.234375 
Q 6.78125 9.90625 6.78125 20.515625 
Q 6.78125 27.484375 10.78125 32.3125 
Q 14.796875 37.15625 21.921875 38.8125 
z
M 18.3125 54.390625 
Q 18.3125 48.734375 21.84375 45.5625 
Q 25.390625 42.390625 31.78125 42.390625 
Q 38.140625 42.390625 41.71875 45.5625 
Q 45.3125 48.734375 45.3125 54.390625 
Q 45.3125 60.0625 41.71875 63.234375 
Q 38.140625 66.40625 31.78125 66.40625 
Q 25.390625 66.40625 21.84375 63.234375 
Q 18.3125 60.0625 18.3125 54.390625 
z
" id="DejaVuSans-56"/>
      </defs>
      <g transform="translate(1076.6831 342.853637)scale(0.1 -0.1)">
       <use xlink:href="#DejaVuSans-56"/>
       <use x="63.623047" xlink:href="#DejaVuSans-48"/>
      </g>
     </g>
    </g>
    <g id="text_10">
     <!-- Step Number -->
     <defs>
      <path d="M 53.515625 70.515625 
L 53.515625 60.890625 
Q 47.90625 63.578125 42.921875 64.890625 
Q 37.9375 66.21875 33.296875 66.21875 
Q 25.25 66.21875 20.875 63.09375 
Q 16.5 59.96875 16.5 54.203125 
Q 16.5 49.359375 19.40625 46.890625 
Q 22.3125 44.4375 30.421875 42.921875 
L 36.375 41.703125 
Q 47.40625 39.59375 52.65625 34.296875 
Q 57.90625 29 57.90625 20.125 
Q 57.90625 9.515625 50.796875 4.046875 
Q 43.703125 -1.421875 29.984375 -1.421875 
Q 24.8125 -1.421875 18.96875 -0.25 
Q 13.140625 0.921875 6.890625 3.21875 
L 6.890625 13.375 
Q 12.890625 10.015625 18.65625 8.296875 
Q 24.421875 6.59375 29.984375 6.59375 
Q 38.421875 6.59375 43.015625 9.90625 
Q 47.609375 13.234375 47.609375 19.390625 
Q 47.609375 24.75 44.3125 27.78125 
Q 41.015625 30.8125 33.5 32.328125 
L 27.484375 33.5 
Q 16.453125 35.6875 11.515625 40.375 
Q 6.59375 45.0625 6.59375 53.421875 
Q 6.59375 63.09375 13.40625 68.65625 
Q 20.21875 74.21875 32.171875 74.21875 
Q 37.3125 74.21875 42.625 73.28125 
Q 47.953125 72.359375 53.515625 70.515625 
z
" id="DejaVuSans-83"/>
      <path d="M 18.3125 70.21875 
L 18.3125 54.6875 
L 36.8125 54.6875 
L 36.8125 47.703125 
L 18.3125 47.703125 
L 18.3125 18.015625 
Q 18.3125 11.328125 20.140625 9.421875 
Q 21.96875 7.515625 27.59375 7.515625 
L 36.8125 7.515625 
L 36.8125 0 
L 27.59375 0 
Q 17.1875 0 13.234375 3.875 
Q 9.28125 7.765625 9.28125 18.015625 
L 9.28125 47.703125 
L 2.6875 47.703125 
L 2.6875 54.6875 
L 9.28125 54.6875 
L 9.28125 70.21875 
z
" id="DejaVuSans-116"/>
      <path d="M 56.203125 29.59375 
L 56.203125 25.203125 
L 14.890625 25.203125 
Q 15.484375 15.921875 20.484375 11.0625 
Q 25.484375 6.203125 34.421875 6.203125 
Q 39.59375 6.203125 44.453125 7.46875 
Q 49.3125 8.734375 54.109375 11.28125 
L 54.109375 2.78125 
Q 49.265625 0.734375 44.1875 -0.34375 
Q 39.109375 -1.421875 33.890625 -1.421875 
Q 20.796875 -1.421875 13.15625 6.1875 
Q 5.515625 13.8125 5.515625 26.8125 
Q 5.515625 40.234375 12.765625 48.109375 
Q 20.015625 56 32.328125 56 
Q 43.359375 56 49.78125 48.890625 
Q 56.203125 41.796875 56.203125 29.59375 
z
M 47.21875 32.234375 
Q 47.125 39.59375 43.09375 43.984375 
Q 39.0625 48.390625 32.421875 48.390625 
Q 24.90625 48.390625 20.390625 44.140625 
Q 15.875 39.890625 15.1875 32.171875 
z
" id="DejaVuSans-101"/>
      <path d="M 18.109375 8.203125 
L 18.109375 -20.796875 
L 9.078125 -20.796875 
L 9.078125 54.6875 
L 18.109375 54.6875 
L 18.109375 46.390625 
Q 20.953125 51.265625 25.265625 53.625 
Q 29.59375 56 35.59375 56 
Q 45.5625 56 51.78125 48.09375 
Q 58.015625 40.1875 58.015625 27.296875 
Q 58.015625 14.40625 51.78125 6.484375 
Q 45.5625 -1.421875 35.59375 -1.421875 
Q 29.59375 -1.421875 25.265625 0.953125 
Q 20.953125 3.328125 18.109375 8.203125 
z
M 48.6875 27.296875 
Q 48.6875 37.203125 44.609375 42.84375 
Q 40.53125 48.484375 33.40625 48.484375 
Q 26.265625 48.484375 22.1875 42.84375 
Q 18.109375 37.203125 18.109375 27.296875 
Q 18.109375 17.390625 22.1875 11.75 
Q 26.265625 6.109375 33.40625 6.109375 
Q 40.53125 6.109375 44.609375 11.75 
Q 48.6875 17.390625 48.6875 27.296875 
z
" id="DejaVuSans-112"/>
      <path id="DejaVuSans-32"/>
      <path d="M 9.8125 72.90625 
L 23.09375 72.90625 
L 55.421875 11.921875 
L 55.421875 72.90625 
L 64.984375 72.90625 
L 64.984375 0 
L 51.703125 0 
L 19.390625 60.984375 
L 19.390625 0 
L 9.8125 0 
z
" id="DejaVuSans-78"/>
      <path d="M 8.5 21.578125 
L 8.5 54.6875 
L 17.484375 54.6875 
L 17.484375 21.921875 
Q 17.484375 14.15625 20.5 10.265625 
Q 23.53125 6.390625 29.59375 6.390625 
Q 36.859375 6.390625 41.078125 11.03125 
Q 45.3125 15.671875 45.3125 23.6875 
L 45.3125 54.6875 
L 54.296875 54.6875 
L 54.296875 0 
L 45.3125 0 
L 45.3125 8.40625 
Q 42.046875 3.421875 37.71875 1 
Q 33.40625 -1.421875 27.6875 -1.421875 
Q 18.265625 -1.421875 13.375 4.4375 
Q 8.5 10.296875 8.5 21.578125 
z
M 31.109375 56 
z
" id="DejaVuSans-117"/>
      <path d="M 52 44.1875 
Q 55.375 50.25 60.0625 53.125 
Q 64.75 56 71.09375 56 
Q 79.640625 56 84.28125 50.015625 
Q 88.921875 44.046875 88.921875 33.015625 
L 88.921875 0 
L 79.890625 0 
L 79.890625 32.71875 
Q 79.890625 40.578125 77.09375 44.375 
Q 74.3125 48.1875 68.609375 48.1875 
Q 61.625 48.1875 57.5625 43.546875 
Q 53.515625 38.921875 53.515625 30.90625 
L 53.515625 0 
L 44.484375 0 
L 44.484375 32.71875 
Q 44.484375 40.625 41.703125 44.40625 
Q 38.921875 48.1875 33.109375 48.1875 
Q 26.21875 48.1875 22.15625 43.53125 
Q 18.109375 38.875 18.109375 30.90625 
L 18.109375 0 
L 9.078125 0 
L 9.078125 54.6875 
L 18.109375 54.6875 
L 18.109375 46.1875 
Q 21.1875 51.21875 25.484375 53.609375 
Q 29.78125 56 35.6875 56 
Q 41.65625 56 45.828125 52.96875 
Q 50 49.953125 52 44.1875 
z
" id="DejaVuSans-109"/>
      <path d="M 48.6875 27.296875 
Q 48.6875 37.203125 44.609375 42.84375 
Q 40.53125 48.484375 33.40625 48.484375 
Q 26.265625 48.484375 22.1875 42.84375 
Q 18.109375 37.203125 18.109375 27.296875 
Q 18.109375 17.390625 22.1875 11.75 
Q 26.265625 6.109375 33.40625 6.109375 
Q 40.53125 6.109375 44.609375 11.75 
Q 48.6875 17.390625 48.6875 27.296875 
z
M 18.109375 46.390625 
Q 20.953125 51.265625 25.265625 53.625 
Q 29.59375 56 35.59375 56 
Q 45.5625 56 51.78125 48.09375 
Q 58.015625 40.1875 58.015625 27.296875 
Q 58.015625 14.40625 51.78125 6.484375 
Q 45.5625 -1.421875 35.59375 -1.421875 
Q 29.59375 -1.421875 25.265625 0.953125 
Q 20.953125 3.328125 18.109375 8.203125 
L 18.109375 0 
L 9.078125 0 
L 9.078125 75.984375 
L 18.109375 75.984375 
z
" id="DejaVuSans-98"/>
      <path d="M 41.109375 46.296875 
Q 39.59375 47.171875 37.8125 47.578125 
Q 36.03125 48 33.890625 48 
Q 26.265625 48 22.1875 43.046875 
Q 18.109375 38.09375 18.109375 28.8125 
L 18.109375 0 
L 9.078125 0 
L 9.078125 54.6875 
L 18.109375 54.6875 
L 18.109375 46.1875 
Q 20.953125 51.171875 25.484375 53.578125 
Q 30.03125 56 36.53125 56 
Q 37.453125 56 38.578125 55.875 
Q 39.703125 55.765625 41.0625 55.515625 
z
" id="DejaVuSans-114"/>
     </defs>
     <g transform="translate(573.921444 356.531762)scale(0.1 -0.1)">
      <use xlink:href="#DejaVuSans-83"/>
      <use x="63.476562" xlink:href="#DejaVuSans-116"/>
      <use x="102.685547" xlink:href="#DejaVuSans-101"/>
      <use x="164.208984" xlink:href="#DejaVuSans-112"/>
      <use x="227.685547" xlink:href="#DejaVuSans-32"/>
      <use x="259.472656" xlink:href="#DejaVuSans-78"/>
      <use x="334.277344" xlink:href="#DejaVuSans-117"/>
      <use x="397.65625" xlink:href="#DejaVuSans-109"/>
      <use x="495.068359" xlink:href="#DejaVuSans-98"/>
      <use x="558.544922" xlink:href="#DejaVuSans-101"/>
      <use x="620.068359" xlink:href="#DejaVuSans-114"/>
     </g>
    </g>
   </g>
   <g id="matplotlib.axis_2">
    <g id="ytick_1">
     <g id="line2d_19">
      <path clip-path="url(#pa829bb90d7)" d="M 83.3112 315.247418 
L 1130.652 315.247418 
" style="fill:none;stroke:#b0b0b0;stroke-linecap:square;stroke-width:0.8;"/>
     </g>
     <g id="line2d_20">
      <defs>
       <path d="M 0 0 
L -3.5 0 
" id="m78ac8968d6" style="stroke:#000000;stroke-width:0.8;"/>
      </defs>
      <g>
       <use style="stroke:#000000;stroke-width:0.8;" x="83.3112" xlink:href="#m78ac8968d6" y="315.247418"/>
      </g>
     </g>
     <g id="text_11">
      <!-- 0 -->
      <g transform="translate(69.9487 319.046637)scale(0.1 -0.1)">
       <use xlink:href="#DejaVuSans-48"/>
      </g>
     </g>
    </g>
    <g id="ytick_2">
     <g id="line2d_21">
      <path clip-path="url(#pa829bb90d7)" d="M 83.3112 263.216291 
L 1130.652 263.216291 
" style="fill:none;stroke:#b0b0b0;stroke-linecap:square;stroke-width:0.8;"/>
     </g>
     <g id="line2d_22">
      <g>
       <use style="stroke:#000000;stroke-width:0.8;" x="83.3112" xlink:href="#m78ac8968d6" y="263.216291"/>
      </g>
     </g>
     <g id="text_12">
      <!-- 200 -->
      <g transform="translate(57.2237 267.01551)scale(0.1 -0.1)">
       <use xlink:href="#DejaVuSans-50"/>
       <use x="63.623047" xlink:href="#DejaVuSans-48"/>
       <use x="127.246094" xlink:href="#DejaVuSans-48"/>
      </g>
     </g>
    </g>
    <g id="ytick_3">
     <g id="line2d_23">
      <path clip-path="url(#pa829bb90d7)" d="M 83.3112 211.185164 
L 1130.652 211.185164 
" style="fill:none;stroke:#b0b0b0;stroke-linecap:square;stroke-width:0.8;"/>
     </g>
     <g id="line2d_24">
      <g>
       <use style="stroke:#000000;stroke-width:0.8;" x="83.3112" xlink:href="#m78ac8968d6" y="211.185164"/>
      </g>
     </g>
     <g id="text_13">
      <!-- 400 -->
      <g transform="translate(57.2237 214.984382)scale(0.1 -0.1)">
       <use xlink:href="#DejaVuSans-52"/>
       <use x="63.623047" xlink:href="#DejaVuSans-48"/>
       <use x="127.246094" xlink:href="#DejaVuSans-48"/>
      </g>
     </g>
    </g>
    <g id="ytick_4">
     <g id="line2d_25">
      <path clip-path="url(#pa829bb90d7)" d="M 83.3112 159.154036 
L 1130.652 159.154036 
" style="fill:none;stroke:#b0b0b0;stroke-linecap:square;stroke-width:0.8;"/>
     </g>
     <g id="line2d_26">
      <g>
       <use style="stroke:#000000;stroke-width:0.8;" x="83.3112" xlink:href="#m78ac8968d6" y="159.154036"/>
      </g>
     </g>
     <g id="text_14">
      <!-- 600 -->
      <g transform="translate(57.2237 162.953255)scale(0.1 -0.1)">
       <use xlink:href="#DejaVuSans-54"/>
       <use x="63.623047" xlink:href="#DejaVuSans-48"/>
       <use x="127.246094" xlink:href="#DejaVuSans-48"/>
      </g>
     </g>
    </g>
    <g id="ytick_5">
     <g id="line2d_27">
      <path clip-path="url(#pa829bb90d7)" d="M 83.3112 107.122909 
L 1130.652 107.122909 
" style="fill:none;stroke:#b0b0b0;stroke-linecap:square;stroke-width:0.8;"/>
     </g>
     <g id="line2d_28">
      <g>
       <use style="stroke:#000000;stroke-width:0.8;" x="83.3112" xlink:href="#m78ac8968d6" y="107.122909"/>
      </g>
     </g>
     <g id="text_15">
      <!-- 800 -->
      <g transform="translate(57.2237 110.922128)scale(0.1 -0.1)">
       <use xlink:href="#DejaVuSans-56"/>
       <use x="63.623047" xlink:href="#DejaVuSans-48"/>
       <use x="127.246094" xlink:href="#DejaVuSans-48"/>
      </g>
     </g>
    </g>
    <g id="ytick_6">
     <g id="line2d_29">
      <path clip-path="url(#pa829bb90d7)" d="M 83.3112 55.091782 
L 1130.652 55.091782 
" style="fill:none;stroke:#b0b0b0;stroke-linecap:square;stroke-width:0.8;"/>
     </g>
     <g id="line2d_30">
      <g>
       <use style="stroke:#000000;stroke-width:0.8;" x="83.3112" xlink:href="#m78ac8968d6" y="55.091782"/>
      </g>
     </g>
     <g id="text_16">
      <!-- 1000 -->
      <g transform="translate(50.8612 58.891001)scale(0.1 -0.1)">
       <use xlink:href="#DejaVuSans-49"/>
       <use x="63.623047" xlink:href="#DejaVuSans-48"/>
       <use x="127.246094" xlink:href="#DejaVuSans-48"/>
       <use x="190.869141" xlink:href="#DejaVuSans-48"/>
      </g>
     </g>
    </g>
    <g id="text_17">
     <!-- Fee (sat/kB) -->
     <defs>
      <path d="M 9.8125 72.90625 
L 51.703125 72.90625 
L 51.703125 64.59375 
L 19.671875 64.59375 
L 19.671875 43.109375 
L 48.578125 43.109375 
L 48.578125 34.8125 
L 19.671875 34.8125 
L 19.671875 0 
L 9.8125 0 
z
" id="DejaVuSans-70"/>
      <path d="M 31 75.875 
Q 24.46875 64.65625 21.28125 53.65625 
Q 18.109375 42.671875 18.109375 31.390625 
Q 18.109375 20.125 21.3125 9.0625 
Q 24.515625 -2 31 -13.1875 
L 23.1875 -13.1875 
Q 15.875 -1.703125 12.234375 9.375 
Q 8.59375 20.453125 8.59375 31.390625 
Q 8.59375 42.28125 12.203125 53.3125 
Q 15.828125 64.359375 23.1875 75.875 
z
" id="DejaVuSans-40"/>
      <path d="M 44.28125 53.078125 
L 44.28125 44.578125 
Q 40.484375 46.53125 36.375 47.5 
Q 32.28125 48.484375 27.875 48.484375 
Q 21.1875 48.484375 17.84375 46.4375 
Q 14.5 44.390625 14.5 40.28125 
Q 14.5 37.15625 16.890625 35.375 
Q 19.28125 33.59375 26.515625 31.984375 
L 29.59375 31.296875 
Q 39.15625 29.25 43.1875 25.515625 
Q 47.21875 21.78125 47.21875 15.09375 
Q 47.21875 7.46875 41.1875 3.015625 
Q 35.15625 -1.421875 24.609375 -1.421875 
Q 20.21875 -1.421875 15.453125 -0.5625 
Q 10.6875 0.296875 5.421875 2 
L 5.421875 11.28125 
Q 10.40625 8.6875 15.234375 7.390625 
Q 20.0625 6.109375 24.8125 6.109375 
Q 31.15625 6.109375 34.5625 8.28125 
Q 37.984375 10.453125 37.984375 14.40625 
Q 37.984375 18.0625 35.515625 20.015625 
Q 33.0625 21.96875 24.703125 23.78125 
L 21.578125 24.515625 
Q 13.234375 26.265625 9.515625 29.90625 
Q 5.8125 33.546875 5.8125 39.890625 
Q 5.8125 47.609375 11.28125 51.796875 
Q 16.75 56 26.8125 56 
Q 31.78125 56 36.171875 55.265625 
Q 40.578125 54.546875 44.28125 53.078125 
z
" id="DejaVuSans-115"/>
      <path d="M 34.28125 27.484375 
Q 23.390625 27.484375 19.1875 25 
Q 14.984375 22.515625 14.984375 16.5 
Q 14.984375 11.71875 18.140625 8.90625 
Q 21.296875 6.109375 26.703125 6.109375 
Q 34.1875 6.109375 38.703125 11.40625 
Q 43.21875 16.703125 43.21875 25.484375 
L 43.21875 27.484375 
z
M 52.203125 31.203125 
L 52.203125 0 
L 43.21875 0 
L 43.21875 8.296875 
Q 40.140625 3.328125 35.546875 0.953125 
Q 30.953125 -1.421875 24.3125 -1.421875 
Q 15.921875 -1.421875 10.953125 3.296875 
Q 6 8.015625 6 15.921875 
Q 6 25.140625 12.171875 29.828125 
Q 18.359375 34.515625 30.609375 34.515625 
L 43.21875 34.515625 
L 43.21875 35.40625 
Q 43.21875 41.609375 39.140625 45 
Q 35.0625 48.390625 27.6875 48.390625 
Q 23 48.390625 18.546875 47.265625 
Q 14.109375 46.140625 10.015625 43.890625 
L 10.015625 52.203125 
Q 14.9375 54.109375 19.578125 55.046875 
Q 24.21875 56 28.609375 56 
Q 40.484375 56 46.34375 49.84375 
Q 52.203125 43.703125 52.203125 31.203125 
z
" id="DejaVuSans-97"/>
      <path d="M 25.390625 72.90625 
L 33.6875 72.90625 
L 8.296875 -9.28125 
L 0 -9.28125 
z
" id="DejaVuSans-47"/>
      <path d="M 9.078125 75.984375 
L 18.109375 75.984375 
L 18.109375 31.109375 
L 44.921875 54.6875 
L 56.390625 54.6875 
L 27.390625 29.109375 
L 57.625 0 
L 45.90625 0 
L 18.109375 26.703125 
L 18.109375 0 
L 9.078125 0 
z
" id="DejaVuSans-107"/>
      <path d="M 19.671875 34.8125 
L 19.671875 8.109375 
L 35.5 8.109375 
Q 43.453125 8.109375 47.28125 11.40625 
Q 51.125 14.703125 51.125 21.484375 
Q 51.125 28.328125 47.28125 31.5625 
Q 43.453125 34.8125 35.5 34.8125 
z
M 19.671875 64.796875 
L 19.671875 42.828125 
L 34.28125 42.828125 
Q 41.5 42.828125 45.03125 45.53125 
Q 48.578125 48.25 48.578125 53.8125 
Q 48.578125 59.328125 45.03125 62.0625 
Q 41.5 64.796875 34.28125 64.796875 
z
M 9.8125 72.90625 
L 35.015625 72.90625 
Q 46.296875 72.90625 52.390625 68.21875 
Q 58.5 63.53125 58.5 54.890625 
Q 58.5 48.1875 55.375 44.234375 
Q 52.25 40.28125 46.1875 39.3125 
Q 53.46875 37.75 57.5 32.78125 
Q 61.53125 27.828125 61.53125 20.40625 
Q 61.53125 10.640625 54.890625 5.3125 
Q 48.25 0 35.984375 0 
L 9.8125 0 
z
" id="DejaVuSans-66"/>
      <path d="M 8.015625 75.875 
L 15.828125 75.875 
Q 23.140625 64.359375 26.78125 53.3125 
Q 30.421875 42.28125 30.421875 31.390625 
Q 30.421875 20.453125 26.78125 9.375 
Q 23.140625 -1.703125 15.828125 -13.1875 
L 8.015625 -13.1875 
Q 14.5 -2 17.703125 9.0625 
Q 20.90625 20.125 20.90625 31.390625 
Q 20.90625 42.671875 17.703125 53.65625 
Q 14.5 64.65625 8.015625 75.875 
z
" id="DejaVuSans-41"/>
     </defs>
     <g transform="translate(44.781513 215.324288)rotate(-90)scale(0.1 -0.1)">
      <use xlink:href="#DejaVuSans-70"/>
      <use x="57.441406" xlink:href="#DejaVuSans-101"/>
      <use x="118.964844" xlink:href="#DejaVuSans-101"/>
      <use x="180.488281" xlink:href="#DejaVuSans-32"/>
      <use x="212.275391" xlink:href="#DejaVuSans-40"/>
      <use x="251.289062" xlink:href="#DejaVuSans-115"/>
      <use x="303.388672" xlink:href="#DejaVuSans-97"/>
      <use x="364.667969" xlink:href="#DejaVuSans-116"/>
      <use x="403.876953" xlink:href="#DejaVuSans-47"/>
      <use x="437.568359" xlink:href="#DejaVuSans-107"/>
      <use x="495.478516" xlink:href="#DejaVuSans-66"/>
      <use x="564.082031" xlink:href="#DejaVuSans-41"/>
     </g>
    </g>
   </g>
   <g id="LineCollection_1">
    <path clip-path="url(#pa829bb90d7)" d="M 130.9176 315.247418 
L 130.9176 55.091782 
" style="fill:none;stroke:#ff0000;stroke-width:1.5;"/>
    <path clip-path="url(#pa829bb90d7)" d="M 142.8192 315.247418 
L 142.8192 73.302676 
" style="fill:none;stroke:#ff0000;stroke-width:1.5;"/>
    <path clip-path="url(#pa829bb90d7)" d="M 154.7208 315.247418 
L 154.7208 90.212793 
" style="fill:none;stroke:#ff0000;stroke-width:1.5;"/>
    <path clip-path="url(#pa829bb90d7)" d="M 166.6224 315.247418 
L 166.6224 105.822131 
" style="fill:none;stroke:#ff0000;stroke-width:1.5;"/>
    <path clip-path="url(#pa829bb90d7)" d="M 178.524 315.247418 
L 178.524 120.390847 
" style="fill:none;stroke:#ff0000;stroke-width:1.5;"/>
    <path clip-path="url(#pa829bb90d7)" d="M 190.4256 315.247418 
L 190.4256 133.91894 
" style="fill:none;stroke:#ff0000;stroke-width:1.5;"/>
    <path clip-path="url(#pa829bb90d7)" d="M 202.3272 315.247418 
L 202.3272 146.40641 
" style="fill:none;stroke:#ff0000;stroke-width:1.5;"/>
    <path clip-path="url(#pa829bb90d7)" d="M 214.2288 315.247418 
L 214.2288 158.113414 
" style="fill:none;stroke:#ff0000;stroke-width:1.5;"/>
    <path clip-path="url(#pa829bb90d7)" d="M 226.1304 315.247418 
L 226.1304 169.039951 
" style="fill:none;stroke:#ff0000;stroke-width:1.5;"/>
    <path clip-path="url(#pa829bb90d7)" d="M 238.032 315.247418 
L 238.032 179.18602 
" style="fill:none;stroke:#ff0000;stroke-width:1.5;"/>
    <path clip-path="url(#pa829bb90d7)" d="M 249.9336 315.247418 
L 249.9336 188.551623 
" style="fill:none;stroke:#ff0000;stroke-width:1.5;"/>
    <path clip-path="url(#pa829bb90d7)" d="M 261.8352 315.247418 
L 261.8352 197.396915 
" style="fill:none;stroke:#ff0000;stroke-width:1.5;"/>
    <path clip-path="url(#pa829bb90d7)" d="M 273.7368 315.247418 
L 273.7368 205.46174 
" style="fill:none;stroke:#ff0000;stroke-width:1.5;"/>
    <path clip-path="url(#pa829bb90d7)" d="M 285.6384 315.247418 
L 285.6384 213.006253 
" style="fill:none;stroke:#ff0000;stroke-width:1.5;"/>
    <path clip-path="url(#pa829bb90d7)" d="M 297.54 315.247418 
L 297.54 220.030455 
" style="fill:none;stroke:#ff0000;stroke-width:1.5;"/>
    <path clip-path="url(#pa829bb90d7)" d="M 309.4416 315.247418 
L 309.4416 226.534346 
" style="fill:none;stroke:#ff0000;stroke-width:1.5;"/>
    <path clip-path="url(#pa829bb90d7)" d="M 321.3432 315.247418 
L 321.3432 232.517926 
" style="fill:none;stroke:#ff0000;stroke-width:1.5;"/>
    <path clip-path="url(#pa829bb90d7)" d="M 333.2448 315.247418 
L 333.2448 238.24135 
" style="fill:none;stroke:#ff0000;stroke-width:1.5;"/>
    <path clip-path="url(#pa829bb90d7)" d="M 345.1464 315.247418 
L 345.1464 243.444463 
" style="fill:none;stroke:#ff0000;stroke-width:1.5;"/>
    <path clip-path="url(#pa829bb90d7)" d="M 357.048 315.247418 
L 357.048 248.38742 
" style="fill:none;stroke:#ff0000;stroke-width:1.5;"/>
    <path clip-path="url(#pa829bb90d7)" d="M 368.9496 315.247418 
L 368.9496 252.810065 
" style="fill:none;stroke:#ff0000;stroke-width:1.5;"/>
    <path clip-path="url(#pa829bb90d7)" d="M 380.8512 315.247418 
L 380.8512 256.972556 
" style="fill:none;stroke:#ff0000;stroke-width:1.5;"/>
    <path clip-path="url(#pa829bb90d7)" d="M 392.7528 315.247418 
L 392.7528 260.87489 
" style="fill:none;stroke:#ff0000;stroke-width:1.5;"/>
    <path clip-path="url(#pa829bb90d7)" d="M 404.6544 315.247418 
L 404.6544 264.517069 
" style="fill:none;stroke:#ff0000;stroke-width:1.5;"/>
    <path clip-path="url(#pa829bb90d7)" d="M 416.556 315.247418 
L 416.556 267.899092 
" style="fill:none;stroke:#ff0000;stroke-width:1.5;"/>
    <path clip-path="url(#pa829bb90d7)" d="M 428.4576 315.247418 
L 428.4576 271.02096 
" style="fill:none;stroke:#ff0000;stroke-width:1.5;"/>
    <path clip-path="url(#pa829bb90d7)" d="M 440.3592 315.247418 
L 440.3592 273.882672 
" style="fill:none;stroke:#ff0000;stroke-width:1.5;"/>
    <path clip-path="url(#pa829bb90d7)" d="M 452.2608 315.247418 
L 452.2608 276.744384 
" style="fill:none;stroke:#ff0000;stroke-width:1.5;"/>
    <path clip-path="url(#pa829bb90d7)" d="M 464.1624 315.247418 
L 464.1624 279.34594 
" style="fill:none;stroke:#ff0000;stroke-width:1.5;"/>
    <path clip-path="url(#pa829bb90d7)" d="M 476.064 315.247418 
L 476.064 281.687341 
" style="fill:none;stroke:#ff0000;stroke-width:1.5;"/>
    <path clip-path="url(#pa829bb90d7)" d="M 487.9656 315.247418 
L 487.9656 284.028742 
" style="fill:none;stroke:#ff0000;stroke-width:1.5;"/>
    <path clip-path="url(#pa829bb90d7)" d="M 499.8672 315.247418 
L 499.8672 286.109987 
" style="fill:none;stroke:#ff0000;stroke-width:1.5;"/>
    <path clip-path="url(#pa829bb90d7)" d="M 511.7688 315.247418 
L 511.7688 287.931076 
" style="fill:none;stroke:#ff0000;stroke-width:1.5;"/>
    <path clip-path="url(#pa829bb90d7)" d="M 523.6704 315.247418 
L 523.6704 289.752166 
" style="fill:none;stroke:#ff0000;stroke-width:1.5;"/>
    <path clip-path="url(#pa829bb90d7)" d="M 535.572 315.247418 
L 535.572 291.3131 
" style="fill:none;stroke:#ff0000;stroke-width:1.5;"/>
    <path clip-path="url(#pa829bb90d7)" d="M 547.4736 315.247418 
L 547.4736 292.874033 
" style="fill:none;stroke:#ff0000;stroke-width:1.5;"/>
    <path clip-path="url(#pa829bb90d7)" d="M 559.3752 315.247418 
L 559.3752 294.434967 
" style="fill:none;stroke:#ff0000;stroke-width:1.5;"/>
    <path clip-path="url(#pa829bb90d7)" d="M 571.2768 315.247418 
L 571.2768 295.735745 
" style="fill:none;stroke:#ff0000;stroke-width:1.5;"/>
    <path clip-path="url(#pa829bb90d7)" d="M 583.1784 315.247418 
L 583.1784 297.036524 
" style="fill:none;stroke:#ff0000;stroke-width:1.5;"/>
    <path clip-path="url(#pa829bb90d7)" d="M 595.08 315.247418 
L 595.08 298.077146 
" style="fill:none;stroke:#ff0000;stroke-width:1.5;"/>
    <path clip-path="url(#pa829bb90d7)" d="M 606.9816 315.247418 
L 606.9816 299.117769 
" style="fill:none;stroke:#ff0000;stroke-width:1.5;"/>
    <path clip-path="url(#pa829bb90d7)" d="M 618.8832 315.247418 
L 618.8832 300.158391 
" style="fill:none;stroke:#ff0000;stroke-width:1.5;"/>
    <path clip-path="url(#pa829bb90d7)" d="M 630.7848 315.247418 
L 630.7848 301.199014 
" style="fill:none;stroke:#ff0000;stroke-width:1.5;"/>
    <path clip-path="url(#pa829bb90d7)" d="M 642.6864 315.247418 
L 642.6864 301.979481 
" style="fill:none;stroke:#ff0000;stroke-width:1.5;"/>
    <path clip-path="url(#pa829bb90d7)" d="M 654.588 315.247418 
L 654.588 302.759948 
" style="fill:none;stroke:#ff0000;stroke-width:1.5;"/>
    <path clip-path="url(#pa829bb90d7)" d="M 666.4896 315.247418 
L 666.4896 303.540415 
" style="fill:none;stroke:#ff0000;stroke-width:1.5;"/>
    <path clip-path="url(#pa829bb90d7)" d="M 678.3912 315.247418 
L 678.3912 304.320881 
" style="fill:none;stroke:#ff0000;stroke-width:1.5;"/>
    <path clip-path="url(#pa829bb90d7)" d="M 690.2928 315.247418 
L 690.2928 304.841193 
" style="fill:none;stroke:#ff0000;stroke-width:1.5;"/>
    <path clip-path="url(#pa829bb90d7)" d="M 702.1944 315.247418 
L 702.1944 305.361504 
" style="fill:none;stroke:#ff0000;stroke-width:1.5;"/>
    <path clip-path="url(#pa829bb90d7)" d="M 714.096 315.247418 
L 714.096 305.881815 
" style="fill:none;stroke:#ff0000;stroke-width:1.5;"/>
    <path clip-path="url(#pa829bb90d7)" d="M 725.9976 315.247418 
L 725.9976 306.402127 
" style="fill:none;stroke:#ff0000;stroke-width:1.5;"/>
    <path clip-path="url(#pa829bb90d7)" d="M 737.8992 315.247418 
L 737.8992 306.922438 
" style="fill:none;stroke:#ff0000;stroke-width:1.5;"/>
    <path clip-path="url(#pa829bb90d7)" d="M 749.8008 315.247418 
L 749.8008 307.442749 
" style="fill:none;stroke:#ff0000;stroke-width:1.5;"/>
    <path clip-path="url(#pa829bb90d7)" d="M 761.7024 315.247418 
L 761.7024 307.96306 
" style="fill:none;stroke:#ff0000;stroke-width:1.5;"/>
    <path clip-path="url(#pa829bb90d7)" d="M 773.604 315.247418 
L 773.604 308.223216 
" style="fill:none;stroke:#ff0000;stroke-width:1.5;"/>
    <path clip-path="url(#pa829bb90d7)" d="M 785.5056 315.247418 
L 785.5056 308.483372 
" style="fill:none;stroke:#ff0000;stroke-width:1.5;"/>
    <path clip-path="url(#pa829bb90d7)" d="M 797.4072 315.247418 
L 797.4072 308.743527 
" style="fill:none;stroke:#ff0000;stroke-width:1.5;"/>
    <path clip-path="url(#pa829bb90d7)" d="M 809.3088 315.247418 
L 809.3088 309.003683 
" style="fill:none;stroke:#ff0000;stroke-width:1.5;"/>
    <path clip-path="url(#pa829bb90d7)" d="M 821.2104 315.247418 
L 821.2104 309.263839 
" style="fill:none;stroke:#ff0000;stroke-width:1.5;"/>
    <path clip-path="url(#pa829bb90d7)" d="M 833.112 315.247418 
L 833.112 309.523994 
" style="fill:none;stroke:#ff0000;stroke-width:1.5;"/>
    <path clip-path="url(#pa829bb90d7)" d="M 845.0136 315.247418 
L 845.0136 309.78415 
" style="fill:none;stroke:#ff0000;stroke-width:1.5;"/>
    <path clip-path="url(#pa829bb90d7)" d="M 856.9152 315.247418 
L 856.9152 310.044305 
" style="fill:none;stroke:#ff0000;stroke-width:1.5;"/>
    <path clip-path="url(#pa829bb90d7)" d="M 868.8168 315.247418 
L 868.8168 310.304461 
" style="fill:none;stroke:#ff0000;stroke-width:1.5;"/>
    <path clip-path="url(#pa829bb90d7)" d="M 880.7184 315.247418 
L 880.7184 310.564617 
" style="fill:none;stroke:#ff0000;stroke-width:1.5;"/>
    <path clip-path="url(#pa829bb90d7)" d="M 892.62 315.247418 
L 892.62 310.824772 
" style="fill:none;stroke:#ff0000;stroke-width:1.5;"/>
    <path clip-path="url(#pa829bb90d7)" d="M 904.5216 315.247418 
L 904.5216 311.084928 
" style="fill:none;stroke:#ff0000;stroke-width:1.5;"/>
    <path clip-path="url(#pa829bb90d7)" d="M 916.4232 315.247418 
L 916.4232 311.345084 
" style="fill:none;stroke:#ff0000;stroke-width:1.5;"/>
    <path clip-path="url(#pa829bb90d7)" d="M 928.3248 315.247418 
L 928.3248 311.605239 
" style="fill:none;stroke:#ff0000;stroke-width:1.5;"/>
    <path clip-path="url(#pa829bb90d7)" d="M 940.2264 315.247418 
L 940.2264 311.865395 
" style="fill:none;stroke:#ff0000;stroke-width:1.5;"/>
    <path clip-path="url(#pa829bb90d7)" d="M 952.128 315.247418 
L 952.128 312.125551 
" style="fill:none;stroke:#ff0000;stroke-width:1.5;"/>
    <path clip-path="url(#pa829bb90d7)" d="M 964.0296 315.247418 
L 964.0296 312.385706 
" style="fill:none;stroke:#ff0000;stroke-width:1.5;"/>
    <path clip-path="url(#pa829bb90d7)" d="M 975.9312 315.247418 
L 975.9312 312.645862 
" style="fill:none;stroke:#ff0000;stroke-width:1.5;"/>
    <path clip-path="url(#pa829bb90d7)" d="M 987.8328 315.247418 
L 987.8328 312.906017 
" style="fill:none;stroke:#ff0000;stroke-width:1.5;"/>
    <path clip-path="url(#pa829bb90d7)" d="M 999.7344 315.247418 
L 999.7344 313.166173 
" style="fill:none;stroke:#ff0000;stroke-width:1.5;"/>
    <path clip-path="url(#pa829bb90d7)" d="M 1011.636 315.247418 
L 1011.636 313.426329 
" style="fill:none;stroke:#ff0000;stroke-width:1.5;"/>
    <path clip-path="url(#pa829bb90d7)" d="M 1023.5376 315.247418 
L 1023.5376 313.686484 
" style="fill:none;stroke:#ff0000;stroke-width:1.5;"/>
    <path clip-path="url(#pa829bb90d7)" d="M 1035.4392 315.247418 
L 1035.4392 313.94664 
" style="fill:none;stroke:#ff0000;stroke-width:1.5;"/>
    <path clip-path="url(#pa829bb90d7)" d="M 1047.3408 315.247418 
L 1047.3408 314.206796 
" style="fill:none;stroke:#ff0000;stroke-width:1.5;"/>
    <path clip-path="url(#pa829bb90d7)" d="M 1059.2424 315.247418 
L 1059.2424 314.466951 
" style="fill:none;stroke:#ff0000;stroke-width:1.5;"/>
    <path clip-path="url(#pa829bb90d7)" d="M 1071.144 315.247418 
L 1071.144 314.727107 
" style="fill:none;stroke:#ff0000;stroke-width:1.5;"/>
    <path clip-path="url(#pa829bb90d7)" d="M 1083.0456 315.247418 
L 1083.0456 314.987263 
" style="fill:none;stroke:#ff0000;stroke-width:1.5;"/>
   </g>
   <g id="line2d_31"/>
   <g id="line2d_32">
    <path clip-path="url(#pa829bb90d7)" d="M 130.9176 315.247418 
L 1083.0456 315.247418 
" style="fill:none;stroke:#808080;stroke-linecap:square;stroke-width:1.5;"/>
   </g>
   <g id="patch_3">
    <path d="M 83.3112 328.2552 
L 83.3112 42.084 
" style="fill:none;stroke:#000000;stroke-linecap:square;stroke-linejoin:miter;stroke-width:0.8;"/>
   </g>
   <g id="patch_4">
    <path d="M 1130.652 328.2552 
L 1130.652 42.084 
" style="fill:none;stroke:#000000;stroke-linecap:square;stroke-linejoin:miter;stroke-width:0.8;"/>
   </g>
   <g id="patch_5">
    <path d="M 83.3112 328.2552 
L 1130.652 328.2552 
" style="fill:none;stroke:#000000;stroke-linecap:square;stroke-linejoin:miter;stroke-width:0.8;"/>
   </g>
   <g id="patch_6">
    <path d="M 83.3112 42.084 
L 1130.652 42.084 
" style="fill:none;stroke:#000000;stroke-linecap:square;stroke-linejoin:miter;stroke-width:0.8;"/>
   </g>
   <g id="text_18">
    <!-- Downward steps for adjustment percentage = 7.0% -->
    <defs>
     <path d="M 19.671875 64.796875 
L 19.671875 8.109375 
L 31.59375 8.109375 
Q 46.6875 8.109375 53.6875 14.9375 
Q 60.6875 21.78125 60.6875 36.53125 
Q 60.6875 51.171875 53.6875 57.984375 
Q 46.6875 64.796875 31.59375 64.796875 
z
M 9.8125 72.90625 
L 30.078125 72.90625 
Q 51.265625 72.90625 61.171875 64.09375 
Q 71.09375 55.28125 71.09375 36.53125 
Q 71.09375 17.671875 61.125 8.828125 
Q 51.171875 0 30.078125 0 
L 9.8125 0 
z
" id="DejaVuSans-68"/>
     <path d="M 30.609375 48.390625 
Q 23.390625 48.390625 19.1875 42.75 
Q 14.984375 37.109375 14.984375 27.296875 
Q 14.984375 17.484375 19.15625 11.84375 
Q 23.34375 6.203125 30.609375 6.203125 
Q 37.796875 6.203125 41.984375 11.859375 
Q 46.1875 17.53125 46.1875 27.296875 
Q 46.1875 37.015625 41.984375 42.703125 
Q 37.796875 48.390625 30.609375 48.390625 
z
M 30.609375 56 
Q 42.328125 56 49.015625 48.375 
Q 55.71875 40.765625 55.71875 27.296875 
Q 55.71875 13.875 49.015625 6.21875 
Q 42.328125 -1.421875 30.609375 -1.421875 
Q 18.84375 -1.421875 12.171875 6.21875 
Q 5.515625 13.875 5.515625 27.296875 
Q 5.515625 40.765625 12.171875 48.375 
Q 18.84375 56 30.609375 56 
z
" id="DejaVuSans-111"/>
     <path d="M 4.203125 54.6875 
L 13.1875 54.6875 
L 24.421875 12.015625 
L 35.59375 54.6875 
L 46.1875 54.6875 
L 57.421875 12.015625 
L 68.609375 54.6875 
L 77.59375 54.6875 
L 63.28125 0 
L 52.6875 0 
L 40.921875 44.828125 
L 29.109375 0 
L 18.5 0 
z
" id="DejaVuSans-119"/>
     <path d="M 54.890625 33.015625 
L 54.890625 0 
L 45.90625 0 
L 45.90625 32.71875 
Q 45.90625 40.484375 42.875 44.328125 
Q 39.84375 48.1875 33.796875 48.1875 
Q 26.515625 48.1875 22.3125 43.546875 
Q 18.109375 38.921875 18.109375 30.90625 
L 18.109375 0 
L 9.078125 0 
L 9.078125 54.6875 
L 18.109375 54.6875 
L 18.109375 46.1875 
Q 21.34375 51.125 25.703125 53.5625 
Q 30.078125 56 35.796875 56 
Q 45.21875 56 50.046875 50.171875 
Q 54.890625 44.34375 54.890625 33.015625 
z
" id="DejaVuSans-110"/>
     <path d="M 45.40625 46.390625 
L 45.40625 75.984375 
L 54.390625 75.984375 
L 54.390625 0 
L 45.40625 0 
L 45.40625 8.203125 
Q 42.578125 3.328125 38.25 0.953125 
Q 33.9375 -1.421875 27.875 -1.421875 
Q 17.96875 -1.421875 11.734375 6.484375 
Q 5.515625 14.40625 5.515625 27.296875 
Q 5.515625 40.1875 11.734375 48.09375 
Q 17.96875 56 27.875 56 
Q 33.9375 56 38.25 53.625 
Q 42.578125 51.265625 45.40625 46.390625 
z
M 14.796875 27.296875 
Q 14.796875 17.390625 18.875 11.75 
Q 22.953125 6.109375 30.078125 6.109375 
Q 37.203125 6.109375 41.296875 11.75 
Q 45.40625 17.390625 45.40625 27.296875 
Q 45.40625 37.203125 41.296875 42.84375 
Q 37.203125 48.484375 30.078125 48.484375 
Q 22.953125 48.484375 18.875 42.84375 
Q 14.796875 37.203125 14.796875 27.296875 
z
" id="DejaVuSans-100"/>
     <path d="M 37.109375 75.984375 
L 37.109375 68.5 
L 28.515625 68.5 
Q 23.6875 68.5 21.796875 66.546875 
Q 19.921875 64.59375 19.921875 59.515625 
L 19.921875 54.6875 
L 34.71875 54.6875 
L 34.71875 47.703125 
L 19.921875 47.703125 
L 19.921875 0 
L 10.890625 0 
L 10.890625 47.703125 
L 2.296875 47.703125 
L 2.296875 54.6875 
L 10.890625 54.6875 
L 10.890625 58.5 
Q 10.890625 67.625 15.140625 71.796875 
Q 19.390625 75.984375 28.609375 75.984375 
z
" id="DejaVuSans-102"/>
     <path d="M 9.421875 54.6875 
L 18.40625 54.6875 
L 18.40625 -0.984375 
Q 18.40625 -11.421875 14.421875 -16.109375 
Q 10.453125 -20.796875 1.609375 -20.796875 
L -1.8125 -20.796875 
L -1.8125 -13.1875 
L 0.59375 -13.1875 
Q 5.71875 -13.1875 7.5625 -10.8125 
Q 9.421875 -8.453125 9.421875 -0.984375 
z
M 9.421875 75.984375 
L 18.40625 75.984375 
L 18.40625 64.59375 
L 9.421875 64.59375 
z
" id="DejaVuSans-106"/>
     <path d="M 48.78125 52.59375 
L 48.78125 44.1875 
Q 44.96875 46.296875 41.140625 47.34375 
Q 37.3125 48.390625 33.40625 48.390625 
Q 24.65625 48.390625 19.8125 42.84375 
Q 14.984375 37.3125 14.984375 27.296875 
Q 14.984375 17.28125 19.8125 11.734375 
Q 24.65625 6.203125 33.40625 6.203125 
Q 37.3125 6.203125 41.140625 7.25 
Q 44.96875 8.296875 48.78125 10.40625 
L 48.78125 2.09375 
Q 45.015625 0.34375 40.984375 -0.53125 
Q 36.96875 -1.421875 32.421875 -1.421875 
Q 20.0625 -1.421875 12.78125 6.34375 
Q 5.515625 14.109375 5.515625 27.296875 
Q 5.515625 40.671875 12.859375 48.328125 
Q 20.21875 56 33.015625 56 
Q 37.15625 56 41.109375 55.140625 
Q 45.0625 54.296875 48.78125 52.59375 
z
" id="DejaVuSans-99"/>
     <path d="M 45.40625 27.984375 
Q 45.40625 37.75 41.375 43.109375 
Q 37.359375 48.484375 30.078125 48.484375 
Q 22.859375 48.484375 18.828125 43.109375 
Q 14.796875 37.75 14.796875 27.984375 
Q 14.796875 18.265625 18.828125 12.890625 
Q 22.859375 7.515625 30.078125 7.515625 
Q 37.359375 7.515625 41.375 12.890625 
Q 45.40625 18.265625 45.40625 27.984375 
z
M 54.390625 6.78125 
Q 54.390625 -7.171875 48.1875 -13.984375 
Q 42 -20.796875 29.203125 -20.796875 
Q 24.46875 -20.796875 20.265625 -20.09375 
Q 16.0625 -19.390625 12.109375 -17.921875 
L 12.109375 -9.1875 
Q 16.0625 -11.328125 19.921875 -12.34375 
Q 23.78125 -13.375 27.78125 -13.375 
Q 36.625 -13.375 41.015625 -8.765625 
Q 45.40625 -4.15625 45.40625 5.171875 
L 45.40625 9.625 
Q 42.625 4.78125 38.28125 2.390625 
Q 33.9375 0 27.875 0 
Q 17.828125 0 11.671875 7.65625 
Q 5.515625 15.328125 5.515625 27.984375 
Q 5.515625 40.671875 11.671875 48.328125 
Q 17.828125 56 27.875 56 
Q 33.9375 56 38.28125 53.609375 
Q 42.625 51.21875 45.40625 46.390625 
L 45.40625 54.6875 
L 54.390625 54.6875 
z
" id="DejaVuSans-103"/>
     <path d="M 10.59375 45.40625 
L 73.1875 45.40625 
L 73.1875 37.203125 
L 10.59375 37.203125 
z
M 10.59375 25.484375 
L 73.1875 25.484375 
L 73.1875 17.1875 
L 10.59375 17.1875 
z
" id="DejaVuSans-61"/>
     <path d="M 10.6875 12.40625 
L 21 12.40625 
L 21 0 
L 10.6875 0 
z
" id="DejaVuSans-46"/>
     <path d="M 72.703125 32.078125 
Q 68.453125 32.078125 66.03125 28.46875 
Q 63.625 24.859375 63.625 18.40625 
Q 63.625 12.0625 66.03125 8.421875 
Q 68.453125 4.78125 72.703125 4.78125 
Q 76.859375 4.78125 79.265625 8.421875 
Q 81.6875 12.0625 81.6875 18.40625 
Q 81.6875 24.8125 79.265625 28.4375 
Q 76.859375 32.078125 72.703125 32.078125 
z
M 72.703125 38.28125 
Q 80.421875 38.28125 84.953125 32.90625 
Q 89.5 27.546875 89.5 18.40625 
Q 89.5 9.28125 84.9375 3.921875 
Q 80.375 -1.421875 72.703125 -1.421875 
Q 64.890625 -1.421875 60.34375 3.921875 
Q 55.8125 9.28125 55.8125 18.40625 
Q 55.8125 27.59375 60.375 32.9375 
Q 64.9375 38.28125 72.703125 38.28125 
z
M 22.3125 68.015625 
Q 18.109375 68.015625 15.6875 64.375 
Q 13.28125 60.75 13.28125 54.390625 
Q 13.28125 47.953125 15.671875 44.328125 
Q 18.0625 40.71875 22.3125 40.71875 
Q 26.5625 40.71875 28.96875 44.328125 
Q 31.390625 47.953125 31.390625 54.390625 
Q 31.390625 60.6875 28.953125 64.34375 
Q 26.515625 68.015625 22.3125 68.015625 
z
M 66.40625 74.21875 
L 74.21875 74.21875 
L 28.609375 -1.421875 
L 20.796875 -1.421875 
z
M 22.3125 74.21875 
Q 30.03125 74.21875 34.609375 68.875 
Q 39.203125 63.53125 39.203125 54.390625 
Q 39.203125 45.171875 34.640625 39.84375 
Q 30.078125 34.515625 22.3125 34.515625 
Q 14.546875 34.515625 10.03125 39.859375 
Q 5.515625 45.21875 5.515625 54.390625 
Q 5.515625 63.484375 10.046875 68.84375 
Q 14.59375 74.21875 22.3125 74.21875 
z
" id="DejaVuSans-37"/>
    </defs>
    <g transform="translate(450.643162 36.084)scale(0.12 -0.12)">
     <use xlink:href="#DejaVuSans-68"/>
     <use x="77.001953" xlink:href="#DejaVuSans-111"/>
     <use x="138.183594" xlink:href="#DejaVuSans-119"/>
     <use x="219.970703" xlink:href="#DejaVuSans-110"/>
     <use x="283.349609" xlink:href="#DejaVuSans-119"/>
     <use x="365.136719" xlink:href="#DejaVuSans-97"/>
     <use x="426.416016" xlink:href="#DejaVuSans-114"/>
     <use x="467.513672" xlink:href="#DejaVuSans-100"/>
     <use x="530.990234" xlink:href="#DejaVuSans-32"/>
     <use x="562.777344" xlink:href="#DejaVuSans-115"/>
     <use x="614.876953" xlink:href="#DejaVuSans-116"/>
     <use x="654.085938" xlink:href="#DejaVuSans-101"/>
     <use x="715.609375" xlink:href="#DejaVuSans-112"/>
     <use x="779.085938" xlink:href="#DejaVuSans-115"/>
     <use x="831.185547" xlink:href="#DejaVuSans-32"/>
     <use x="862.972656" xlink:href="#DejaVuSans-102"/>
     <use x="898.177734" xlink:href="#DejaVuSans-111"/>
     <use x="959.359375" xlink:href="#DejaVuSans-114"/>
     <use x="1000.472656" xlink:href="#DejaVuSans-32"/>
     <use x="1032.259766" xlink:href="#DejaVuSans-97"/>
     <use x="1093.539062" xlink:href="#DejaVuSans-100"/>
     <use x="1157.015625" xlink:href="#DejaVuSans-106"/>
     <use x="1184.798828" xlink:href="#DejaVuSans-117"/>
     <use x="1248.177734" xlink:href="#DejaVuSans-115"/>
     <use x="1300.277344" xlink:href="#DejaVuSans-116"/>
     <use x="1339.486328" xlink:href="#DejaVuSans-109"/>
     <use x="1436.898438" xlink:href="#DejaVuSans-101"/>
     <use x="1498.421875" xlink:href="#DejaVuSans-110"/>
     <use x="1561.800781" xlink:href="#DejaVuSans-116"/>
     <use x="1601.009766" xlink:href="#DejaVuSans-32"/>
     <use x="1632.796875" xlink:href="#DejaVuSans-112"/>
     <use x="1696.273438" xlink:href="#DejaVuSans-101"/>
     <use x="1757.796875" xlink:href="#DejaVuSans-114"/>
     <use x="1798.878906" xlink:href="#DejaVuSans-99"/>
     <use x="1853.859375" xlink:href="#DejaVuSans-101"/>
     <use x="1915.382812" xlink:href="#DejaVuSans-110"/>
     <use x="1978.761719" xlink:href="#DejaVuSans-116"/>
     <use x="2017.970703" xlink:href="#DejaVuSans-97"/>
     <use x="2079.25" xlink:href="#DejaVuSans-103"/>
     <use x="2142.726562" xlink:href="#DejaVuSans-101"/>
     <use x="2204.25" xlink:href="#DejaVuSans-32"/>
     <use x="2236.037109" xlink:href="#DejaVuSans-61"/>
     <use x="2319.826172" xlink:href="#DejaVuSans-32"/>
     <use x="2351.613281" xlink:href="#DejaVuSans-55"/>
     <use x="2415.236328" xlink:href="#DejaVuSans-46"/>
     <use x="2447.023438" xlink:href="#DejaVuSans-48"/>
     <use x="2510.646484" xlink:href="#DejaVuSans-37"/>
    </g>
   </g>
  </g>
  <g id="axes_2">
   <g id="patch_7">
    <path d="M 83.3112 757.512 
L 1130.652 757.512 
L 1130.652 471.3408 
L 83.3112 471.3408 
z
" style="fill:#ffffff;"/>
   </g>
   <g id="matplotlib.axis_3">
    <g id="xtick_10">
     <g id="line2d_33">
      <path clip-path="url(#p853040b899)" d="M 130.9176 757.512 
L 130.9176 471.3408 
" style="fill:none;stroke:#b0b0b0;stroke-linecap:square;stroke-width:0.8;"/>
     </g>
     <g id="line2d_34">
      <g>
       <use style="stroke:#000000;stroke-width:0.8;" x="130.9176" xlink:href="#m746f196453" y="757.512"/>
      </g>
     </g>
     <g id="text_19">
      <!-- 0 -->
      <g transform="translate(127.73635 772.110437)scale(0.1 -0.1)">
       <use xlink:href="#DejaVuSans-48"/>
      </g>
     </g>
    </g>
    <g id="xtick_11">
     <g id="line2d_35">
      <path clip-path="url(#p853040b899)" d="M 357.614743 757.512 
L 357.614743 471.3408 
" style="fill:none;stroke:#b0b0b0;stroke-linecap:square;stroke-width:0.8;"/>
     </g>
     <g id="line2d_36">
      <g>
       <use style="stroke:#000000;stroke-width:0.8;" x="357.614743" xlink:href="#m746f196453" y="757.512"/>
      </g>
     </g>
     <g id="text_20">
      <!-- 20 -->
      <g transform="translate(351.252243 772.110437)scale(0.1 -0.1)">
       <use xlink:href="#DejaVuSans-50"/>
       <use x="63.623047" xlink:href="#DejaVuSans-48"/>
      </g>
     </g>
    </g>
    <g id="xtick_12">
     <g id="line2d_37">
      <path clip-path="url(#p853040b899)" d="M 584.311886 757.512 
L 584.311886 471.3408 
" style="fill:none;stroke:#b0b0b0;stroke-linecap:square;stroke-width:0.8;"/>
     </g>
     <g id="line2d_38">
      <g>
       <use style="stroke:#000000;stroke-width:0.8;" x="584.311886" xlink:href="#m746f196453" y="757.512"/>
      </g>
     </g>
     <g id="text_21">
      <!-- 40 -->
      <g transform="translate(577.949386 772.110437)scale(0.1 -0.1)">
       <use xlink:href="#DejaVuSans-52"/>
       <use x="63.623047" xlink:href="#DejaVuSans-48"/>
      </g>
     </g>
    </g>
    <g id="xtick_13">
     <g id="line2d_39">
      <path clip-path="url(#p853040b899)" d="M 811.009029 757.512 
L 811.009029 471.3408 
" style="fill:none;stroke:#b0b0b0;stroke-linecap:square;stroke-width:0.8;"/>
     </g>
     <g id="line2d_40">
      <g>
       <use style="stroke:#000000;stroke-width:0.8;" x="811.009029" xlink:href="#m746f196453" y="757.512"/>
      </g>
     </g>
     <g id="text_22">
      <!-- 60 -->
      <g transform="translate(804.646529 772.110437)scale(0.1 -0.1)">
       <use xlink:href="#DejaVuSans-54"/>
       <use x="63.623047" xlink:href="#DejaVuSans-48"/>
      </g>
     </g>
    </g>
    <g id="xtick_14">
     <g id="line2d_41">
      <path clip-path="url(#p853040b899)" d="M 1037.706171 757.512 
L 1037.706171 471.3408 
" style="fill:none;stroke:#b0b0b0;stroke-linecap:square;stroke-width:0.8;"/>
     </g>
     <g id="line2d_42">
      <g>
       <use style="stroke:#000000;stroke-width:0.8;" x="1037.706171" xlink:href="#m746f196453" y="757.512"/>
      </g>
     </g>
     <g id="text_23">
      <!-- 80 -->
      <g transform="translate(1031.343671 772.110437)scale(0.1 -0.1)">
       <use xlink:href="#DejaVuSans-56"/>
       <use x="63.623047" xlink:href="#DejaVuSans-48"/>
      </g>
     </g>
    </g>
    <g id="text_24">
     <!-- Step Number -->
     <g transform="translate(573.921444 785.788563)scale(0.1 -0.1)">
      <use xlink:href="#DejaVuSans-83"/>
      <use x="63.476562" xlink:href="#DejaVuSans-116"/>
      <use x="102.685547" xlink:href="#DejaVuSans-101"/>
      <use x="164.208984" xlink:href="#DejaVuSans-112"/>
      <use x="227.685547" xlink:href="#DejaVuSans-32"/>
      <use x="259.472656" xlink:href="#DejaVuSans-78"/>
      <use x="334.277344" xlink:href="#DejaVuSans-117"/>
      <use x="397.65625" xlink:href="#DejaVuSans-109"/>
      <use x="495.068359" xlink:href="#DejaVuSans-98"/>
      <use x="558.544922" xlink:href="#DejaVuSans-101"/>
      <use x="620.068359" xlink:href="#DejaVuSans-114"/>
     </g>
    </g>
   </g>
   <g id="matplotlib.axis_4">
    <g id="ytick_7">
     <g id="line2d_43">
      <path clip-path="url(#p853040b899)" d="M 83.3112 744.504218 
L 1130.652 744.504218 
" style="fill:none;stroke:#b0b0b0;stroke-linecap:square;stroke-width:0.8;"/>
     </g>
     <g id="line2d_44">
      <g>
       <use style="stroke:#000000;stroke-width:0.8;" x="83.3112" xlink:href="#m78ac8968d6" y="744.504218"/>
      </g>
     </g>
     <g id="text_25">
      <!-- 0 -->
      <g transform="translate(69.9487 748.303437)scale(0.1 -0.1)">
       <use xlink:href="#DejaVuSans-48"/>
      </g>
     </g>
    </g>
    <g id="ytick_8">
     <g id="line2d_45">
      <path clip-path="url(#p853040b899)" d="M 83.3112 692.473091 
L 1130.652 692.473091 
" style="fill:none;stroke:#b0b0b0;stroke-linecap:square;stroke-width:0.8;"/>
     </g>
     <g id="line2d_46">
      <g>
       <use style="stroke:#000000;stroke-width:0.8;" x="83.3112" xlink:href="#m78ac8968d6" y="692.473091"/>
      </g>
     </g>
     <g id="text_26">
      <!-- 200 -->
      <g transform="translate(57.2237 696.27231)scale(0.1 -0.1)">
       <use xlink:href="#DejaVuSans-50"/>
       <use x="63.623047" xlink:href="#DejaVuSans-48"/>
       <use x="127.246094" xlink:href="#DejaVuSans-48"/>
      </g>
     </g>
    </g>
    <g id="ytick_9">
     <g id="line2d_47">
      <path clip-path="url(#p853040b899)" d="M 83.3112 640.441964 
L 1130.652 640.441964 
" style="fill:none;stroke:#b0b0b0;stroke-linecap:square;stroke-width:0.8;"/>
     </g>
     <g id="line2d_48">
      <g>
       <use style="stroke:#000000;stroke-width:0.8;" x="83.3112" xlink:href="#m78ac8968d6" y="640.441964"/>
      </g>
     </g>
     <g id="text_27">
      <!-- 400 -->
      <g transform="translate(57.2237 644.241182)scale(0.1 -0.1)">
       <use xlink:href="#DejaVuSans-52"/>
       <use x="63.623047" xlink:href="#DejaVuSans-48"/>
       <use x="127.246094" xlink:href="#DejaVuSans-48"/>
      </g>
     </g>
    </g>
    <g id="ytick_10">
     <g id="line2d_49">
      <path clip-path="url(#p853040b899)" d="M 83.3112 588.410836 
L 1130.652 588.410836 
" style="fill:none;stroke:#b0b0b0;stroke-linecap:square;stroke-width:0.8;"/>
     </g>
     <g id="line2d_50">
      <g>
       <use style="stroke:#000000;stroke-width:0.8;" x="83.3112" xlink:href="#m78ac8968d6" y="588.410836"/>
      </g>
     </g>
     <g id="text_28">
      <!-- 600 -->
      <g transform="translate(57.2237 592.210055)scale(0.1 -0.1)">
       <use xlink:href="#DejaVuSans-54"/>
       <use x="63.623047" xlink:href="#DejaVuSans-48"/>
       <use x="127.246094" xlink:href="#DejaVuSans-48"/>
      </g>
     </g>
    </g>
    <g id="ytick_11">
     <g id="line2d_51">
      <path clip-path="url(#p853040b899)" d="M 83.3112 536.379709 
L 1130.652 536.379709 
" style="fill:none;stroke:#b0b0b0;stroke-linecap:square;stroke-width:0.8;"/>
     </g>
     <g id="line2d_52">
      <g>
       <use style="stroke:#000000;stroke-width:0.8;" x="83.3112" xlink:href="#m78ac8968d6" y="536.379709"/>
      </g>
     </g>
     <g id="text_29">
      <!-- 800 -->
      <g transform="translate(57.2237 540.178928)scale(0.1 -0.1)">
       <use xlink:href="#DejaVuSans-56"/>
       <use x="63.623047" xlink:href="#DejaVuSans-48"/>
       <use x="127.246094" xlink:href="#DejaVuSans-48"/>
      </g>
     </g>
    </g>
    <g id="ytick_12">
     <g id="line2d_53">
      <path clip-path="url(#p853040b899)" d="M 83.3112 484.348582 
L 1130.652 484.348582 
" style="fill:none;stroke:#b0b0b0;stroke-linecap:square;stroke-width:0.8;"/>
     </g>
     <g id="line2d_54">
      <g>
       <use style="stroke:#000000;stroke-width:0.8;" x="83.3112" xlink:href="#m78ac8968d6" y="484.348582"/>
      </g>
     </g>
     <g id="text_30">
      <!-- 1000 -->
      <g transform="translate(50.8612 488.147801)scale(0.1 -0.1)">
       <use xlink:href="#DejaVuSans-49"/>
       <use x="63.623047" xlink:href="#DejaVuSans-48"/>
       <use x="127.246094" xlink:href="#DejaVuSans-48"/>
       <use x="190.869141" xlink:href="#DejaVuSans-48"/>
      </g>
     </g>
    </g>
    <g id="text_31">
     <!-- Fee (sat/kB) -->
     <g transform="translate(44.781513 644.581087)rotate(-90)scale(0.1 -0.1)">
      <use xlink:href="#DejaVuSans-70"/>
      <use x="57.441406" xlink:href="#DejaVuSans-101"/>
      <use x="118.964844" xlink:href="#DejaVuSans-101"/>
      <use x="180.488281" xlink:href="#DejaVuSans-32"/>
      <use x="212.275391" xlink:href="#DejaVuSans-40"/>
      <use x="251.289062" xlink:href="#DejaVuSans-115"/>
      <use x="303.388672" xlink:href="#DejaVuSans-97"/>
      <use x="364.667969" xlink:href="#DejaVuSans-116"/>
      <use x="403.876953" xlink:href="#DejaVuSans-47"/>
      <use x="437.568359" xlink:href="#DejaVuSans-107"/>
      <use x="495.478516" xlink:href="#DejaVuSans-66"/>
      <use x="564.082031" xlink:href="#DejaVuSans-41"/>
     </g>
    </g>
   </g>
   <g id="LineCollection_2">
    <path clip-path="url(#p853040b899)" d="M 130.9176 744.504218 
L 130.9176 744.244063 
" style="fill:none;stroke:#008000;stroke-width:1.5;"/>
    <path clip-path="url(#p853040b899)" d="M 142.252457 744.504218 
L 142.252457 743.983907 
" style="fill:none;stroke:#008000;stroke-width:1.5;"/>
    <path clip-path="url(#p853040b899)" d="M 153.587314 744.504218 
L 153.587314 743.723751 
" style="fill:none;stroke:#008000;stroke-width:1.5;"/>
    <path clip-path="url(#p853040b899)" d="M 164.922171 744.504218 
L 164.922171 743.463596 
" style="fill:none;stroke:#008000;stroke-width:1.5;"/>
    <path clip-path="url(#p853040b899)" d="M 176.257029 744.504218 
L 176.257029 743.20344 
" style="fill:none;stroke:#008000;stroke-width:1.5;"/>
    <path clip-path="url(#p853040b899)" d="M 187.591886 744.504218 
L 187.591886 742.943284 
" style="fill:none;stroke:#008000;stroke-width:1.5;"/>
    <path clip-path="url(#p853040b899)" d="M 198.926743 744.504218 
L 198.926743 742.683129 
" style="fill:none;stroke:#008000;stroke-width:1.5;"/>
    <path clip-path="url(#p853040b899)" d="M 210.2616 744.504218 
L 210.2616 742.422973 
" style="fill:none;stroke:#008000;stroke-width:1.5;"/>
    <path clip-path="url(#p853040b899)" d="M 221.596457 744.504218 
L 221.596457 742.162817 
" style="fill:none;stroke:#008000;stroke-width:1.5;"/>
    <path clip-path="url(#p853040b899)" d="M 232.931314 744.504218 
L 232.931314 741.902662 
" style="fill:none;stroke:#008000;stroke-width:1.5;"/>
    <path clip-path="url(#p853040b899)" d="M 244.266171 744.504218 
L 244.266171 741.642506 
" style="fill:none;stroke:#008000;stroke-width:1.5;"/>
    <path clip-path="url(#p853040b899)" d="M 255.601029 744.504218 
L 255.601029 741.382351 
" style="fill:none;stroke:#008000;stroke-width:1.5;"/>
    <path clip-path="url(#p853040b899)" d="M 266.935886 744.504218 
L 266.935886 741.122195 
" style="fill:none;stroke:#008000;stroke-width:1.5;"/>
    <path clip-path="url(#p853040b899)" d="M 278.270743 744.504218 
L 278.270743 740.862039 
" style="fill:none;stroke:#008000;stroke-width:1.5;"/>
    <path clip-path="url(#p853040b899)" d="M 289.6056 744.504218 
L 289.6056 740.601884 
" style="fill:none;stroke:#008000;stroke-width:1.5;"/>
    <path clip-path="url(#p853040b899)" d="M 300.940457 744.504218 
L 300.940457 740.341728 
" style="fill:none;stroke:#008000;stroke-width:1.5;"/>
    <path clip-path="url(#p853040b899)" d="M 312.275314 744.504218 
L 312.275314 740.081572 
" style="fill:none;stroke:#008000;stroke-width:1.5;"/>
    <path clip-path="url(#p853040b899)" d="M 323.610171 744.504218 
L 323.610171 739.821417 
" style="fill:none;stroke:#008000;stroke-width:1.5;"/>
    <path clip-path="url(#p853040b899)" d="M 334.945029 744.504218 
L 334.945029 739.561261 
" style="fill:none;stroke:#008000;stroke-width:1.5;"/>
    <path clip-path="url(#p853040b899)" d="M 346.279886 744.504218 
L 346.279886 739.301105 
" style="fill:none;stroke:#008000;stroke-width:1.5;"/>
    <path clip-path="url(#p853040b899)" d="M 357.614743 744.504218 
L 357.614743 739.04095 
" style="fill:none;stroke:#008000;stroke-width:1.5;"/>
    <path clip-path="url(#p853040b899)" d="M 368.9496 744.504218 
L 368.9496 738.780794 
" style="fill:none;stroke:#008000;stroke-width:1.5;"/>
    <path clip-path="url(#p853040b899)" d="M 380.284457 744.504218 
L 380.284457 738.520639 
" style="fill:none;stroke:#008000;stroke-width:1.5;"/>
    <path clip-path="url(#p853040b899)" d="M 391.619314 744.504218 
L 391.619314 738.260483 
" style="fill:none;stroke:#008000;stroke-width:1.5;"/>
    <path clip-path="url(#p853040b899)" d="M 402.954171 744.504218 
L 402.954171 738.000327 
" style="fill:none;stroke:#008000;stroke-width:1.5;"/>
    <path clip-path="url(#p853040b899)" d="M 414.289029 744.504218 
L 414.289029 737.740172 
" style="fill:none;stroke:#008000;stroke-width:1.5;"/>
    <path clip-path="url(#p853040b899)" d="M 425.623886 744.504218 
L 425.623886 737.480016 
" style="fill:none;stroke:#008000;stroke-width:1.5;"/>
    <path clip-path="url(#p853040b899)" d="M 436.958743 744.504218 
L 436.958743 737.21986 
" style="fill:none;stroke:#008000;stroke-width:1.5;"/>
    <path clip-path="url(#p853040b899)" d="M 448.2936 744.504218 
L 448.2936 736.959705 
" style="fill:none;stroke:#008000;stroke-width:1.5;"/>
    <path clip-path="url(#p853040b899)" d="M 459.628457 744.504218 
L 459.628457 736.439393 
" style="fill:none;stroke:#008000;stroke-width:1.5;"/>
    <path clip-path="url(#p853040b899)" d="M 470.963314 744.504218 
L 470.963314 735.919082 
" style="fill:none;stroke:#008000;stroke-width:1.5;"/>
    <path clip-path="url(#p853040b899)" d="M 482.298171 744.504218 
L 482.298171 735.398771 
" style="fill:none;stroke:#008000;stroke-width:1.5;"/>
    <path clip-path="url(#p853040b899)" d="M 493.633029 744.504218 
L 493.633029 734.87846 
" style="fill:none;stroke:#008000;stroke-width:1.5;"/>
    <path clip-path="url(#p853040b899)" d="M 504.967886 744.504218 
L 504.967886 734.358148 
" style="fill:none;stroke:#008000;stroke-width:1.5;"/>
    <path clip-path="url(#p853040b899)" d="M 516.302743 744.504218 
L 516.302743 733.837837 
" style="fill:none;stroke:#008000;stroke-width:1.5;"/>
    <path clip-path="url(#p853040b899)" d="M 527.6376 744.504218 
L 527.6376 733.317526 
" style="fill:none;stroke:#008000;stroke-width:1.5;"/>
    <path clip-path="url(#p853040b899)" d="M 538.972457 744.504218 
L 538.972457 732.537059 
" style="fill:none;stroke:#008000;stroke-width:1.5;"/>
    <path clip-path="url(#p853040b899)" d="M 550.307314 744.504218 
L 550.307314 731.756592 
" style="fill:none;stroke:#008000;stroke-width:1.5;"/>
    <path clip-path="url(#p853040b899)" d="M 561.642171 744.504218 
L 561.642171 730.976125 
" style="fill:none;stroke:#008000;stroke-width:1.5;"/>
    <path clip-path="url(#p853040b899)" d="M 572.977029 744.504218 
L 572.977029 730.195658 
" style="fill:none;stroke:#008000;stroke-width:1.5;"/>
    <path clip-path="url(#p853040b899)" d="M 584.311886 744.504218 
L 584.311886 729.415191 
" style="fill:none;stroke:#008000;stroke-width:1.5;"/>
    <path clip-path="url(#p853040b899)" d="M 595.646743 744.504218 
L 595.646743 728.374569 
" style="fill:none;stroke:#008000;stroke-width:1.5;"/>
    <path clip-path="url(#p853040b899)" d="M 606.9816 744.504218 
L 606.9816 727.333946 
" style="fill:none;stroke:#008000;stroke-width:1.5;"/>
    <path clip-path="url(#p853040b899)" d="M 618.316457 744.504218 
L 618.316457 726.293324 
" style="fill:none;stroke:#008000;stroke-width:1.5;"/>
    <path clip-path="url(#p853040b899)" d="M 629.651314 744.504218 
L 629.651314 725.252701 
" style="fill:none;stroke:#008000;stroke-width:1.5;"/>
    <path clip-path="url(#p853040b899)" d="M 640.986171 744.504218 
L 640.986171 723.951923 
" style="fill:none;stroke:#008000;stroke-width:1.5;"/>
    <path clip-path="url(#p853040b899)" d="M 652.321029 744.504218 
L 652.321029 722.651145 
" style="fill:none;stroke:#008000;stroke-width:1.5;"/>
    <path clip-path="url(#p853040b899)" d="M 663.655886 744.504218 
L 663.655886 721.350367 
" style="fill:none;stroke:#008000;stroke-width:1.5;"/>
    <path clip-path="url(#p853040b899)" d="M 674.990743 744.504218 
L 674.990743 719.789433 
" style="fill:none;stroke:#008000;stroke-width:1.5;"/>
    <path clip-path="url(#p853040b899)" d="M 686.3256 744.504218 
L 686.3256 718.228499 
" style="fill:none;stroke:#008000;stroke-width:1.5;"/>
    <path clip-path="url(#p853040b899)" d="M 697.660457 744.504218 
L 697.660457 716.407409 
" style="fill:none;stroke:#008000;stroke-width:1.5;"/>
    <path clip-path="url(#p853040b899)" d="M 708.995314 744.504218 
L 708.995314 714.58632 
" style="fill:none;stroke:#008000;stroke-width:1.5;"/>
    <path clip-path="url(#p853040b899)" d="M 720.330171 744.504218 
L 720.330171 712.505075 
" style="fill:none;stroke:#008000;stroke-width:1.5;"/>
    <path clip-path="url(#p853040b899)" d="M 731.665029 744.504218 
L 731.665029 710.42383 
" style="fill:none;stroke:#008000;stroke-width:1.5;"/>
    <path clip-path="url(#p853040b899)" d="M 742.999886 744.504218 
L 742.999886 708.082429 
" style="fill:none;stroke:#008000;stroke-width:1.5;"/>
    <path clip-path="url(#p853040b899)" d="M 754.334743 744.504218 
L 754.334743 705.741028 
" style="fill:none;stroke:#008000;stroke-width:1.5;"/>
    <path clip-path="url(#p853040b899)" d="M 765.6696 744.504218 
L 765.6696 703.139472 
" style="fill:none;stroke:#008000;stroke-width:1.5;"/>
    <path clip-path="url(#p853040b899)" d="M 777.004457 744.504218 
L 777.004457 700.27776 
" style="fill:none;stroke:#008000;stroke-width:1.5;"/>
    <path clip-path="url(#p853040b899)" d="M 788.339314 744.504218 
L 788.339314 697.416048 
" style="fill:none;stroke:#008000;stroke-width:1.5;"/>
    <path clip-path="url(#p853040b899)" d="M 799.674171 744.504218 
L 799.674171 694.29418 
" style="fill:none;stroke:#008000;stroke-width:1.5;"/>
    <path clip-path="url(#p853040b899)" d="M 811.009029 744.504218 
L 811.009029 690.912157 
" style="fill:none;stroke:#008000;stroke-width:1.5;"/>
    <path clip-path="url(#p853040b899)" d="M 822.343886 744.504218 
L 822.343886 687.269978 
" style="fill:none;stroke:#008000;stroke-width:1.5;"/>
    <path clip-path="url(#p853040b899)" d="M 833.678743 744.504218 
L 833.678743 683.367644 
" style="fill:none;stroke:#008000;stroke-width:1.5;"/>
    <path clip-path="url(#p853040b899)" d="M 845.0136 744.504218 
L 845.0136 679.205153 
" style="fill:none;stroke:#008000;stroke-width:1.5;"/>
    <path clip-path="url(#p853040b899)" d="M 856.348457 744.504218 
L 856.348457 674.782508 
" style="fill:none;stroke:#008000;stroke-width:1.5;"/>
    <path clip-path="url(#p853040b899)" d="M 867.683314 744.504218 
L 867.683314 670.099706 
" style="fill:none;stroke:#008000;stroke-width:1.5;"/>
    <path clip-path="url(#p853040b899)" d="M 879.018171 744.504218 
L 879.018171 664.896593 
" style="fill:none;stroke:#008000;stroke-width:1.5;"/>
    <path clip-path="url(#p853040b899)" d="M 890.353029 744.504218 
L 890.353029 659.433325 
" style="fill:none;stroke:#008000;stroke-width:1.5;"/>
    <path clip-path="url(#p853040b899)" d="M 901.687886 744.504218 
L 901.687886 653.709901 
" style="fill:none;stroke:#008000;stroke-width:1.5;"/>
    <path clip-path="url(#p853040b899)" d="M 913.022743 744.504218 
L 913.022743 647.466166 
" style="fill:none;stroke:#008000;stroke-width:1.5;"/>
    <path clip-path="url(#p853040b899)" d="M 924.3576 744.504218 
L 924.3576 640.702119 
" style="fill:none;stroke:#008000;stroke-width:1.5;"/>
    <path clip-path="url(#p853040b899)" d="M 935.692457 744.504218 
L 935.692457 633.677917 
" style="fill:none;stroke:#008000;stroke-width:1.5;"/>
    <path clip-path="url(#p853040b899)" d="M 947.027314 744.504218 
L 947.027314 626.133404 
" style="fill:none;stroke:#008000;stroke-width:1.5;"/>
    <path clip-path="url(#p853040b899)" d="M 958.362171 744.504218 
L 958.362171 618.068579 
" style="fill:none;stroke:#008000;stroke-width:1.5;"/>
    <path clip-path="url(#p853040b899)" d="M 969.697029 744.504218 
L 969.697029 609.223287 
" style="fill:none;stroke:#008000;stroke-width:1.5;"/>
    <path clip-path="url(#p853040b899)" d="M 981.031886 744.504218 
L 981.031886 599.857684 
" style="fill:none;stroke:#008000;stroke-width:1.5;"/>
    <path clip-path="url(#p853040b899)" d="M 992.366743 744.504218 
L 992.366743 589.97177 
" style="fill:none;stroke:#008000;stroke-width:1.5;"/>
    <path clip-path="url(#p853040b899)" d="M 1003.7016 744.504218 
L 1003.7016 579.305389 
" style="fill:none;stroke:#008000;stroke-width:1.5;"/>
    <path clip-path="url(#p853040b899)" d="M 1015.036457 744.504218 
L 1015.036457 567.858541 
" style="fill:none;stroke:#008000;stroke-width:1.5;"/>
    <path clip-path="url(#p853040b899)" d="M 1026.371314 744.504218 
L 1026.371314 555.631226 
" style="fill:none;stroke:#008000;stroke-width:1.5;"/>
    <path clip-path="url(#p853040b899)" d="M 1037.706171 744.504218 
L 1037.706171 542.623444 
" style="fill:none;stroke:#008000;stroke-width:1.5;"/>
    <path clip-path="url(#p853040b899)" d="M 1049.041029 744.504218 
L 1049.041029 528.57504 
" style="fill:none;stroke:#008000;stroke-width:1.5;"/>
    <path clip-path="url(#p853040b899)" d="M 1060.375886 744.504218 
L 1060.375886 513.486013 
" style="fill:none;stroke:#008000;stroke-width:1.5;"/>
    <path clip-path="url(#p853040b899)" d="M 1071.710743 744.504218 
L 1071.710743 497.356364 
" style="fill:none;stroke:#008000;stroke-width:1.5;"/>
    <path clip-path="url(#p853040b899)" d="M 1083.0456 744.504218 
L 1083.0456 484.348582 
" style="fill:none;stroke:#008000;stroke-width:1.5;"/>
   </g>
   <g id="line2d_55"/>
   <g id="line2d_56">
    <path clip-path="url(#p853040b899)" d="M 130.9176 744.504218 
L 1083.0456 744.504218 
" style="fill:none;stroke:#808080;stroke-linecap:square;stroke-width:1.5;"/>
   </g>
   <g id="patch_8">
    <path d="M 83.3112 757.512 
L 83.3112 471.3408 
" style="fill:none;stroke:#000000;stroke-linecap:square;stroke-linejoin:miter;stroke-width:0.8;"/>
   </g>
   <g id="patch_9">
    <path d="M 1130.652 757.512 
L 1130.652 471.3408 
" style="fill:none;stroke:#000000;stroke-linecap:square;stroke-linejoin:miter;stroke-width:0.8;"/>
   </g>
   <g id="patch_10">
    <path d="M 83.3112 757.512 
L 1130.652 757.512 
" style="fill:none;stroke:#000000;stroke-linecap:square;stroke-linejoin:miter;stroke-width:0.8;"/>
   </g>
   <g id="patch_11">
    <path d="M 83.3112 471.3408 
L 1130.652 471.3408 
" style="fill:none;stroke:#000000;stroke-linecap:square;stroke-linejoin:miter;stroke-width:0.8;"/>
   </g>
   <g id="text_32">
    <!-- Upward steps for adjustment percentage = 7.0% -->
    <defs>
     <path d="M 8.6875 72.90625 
L 18.609375 72.90625 
L 18.609375 28.609375 
Q 18.609375 16.890625 22.84375 11.734375 
Q 27.09375 6.59375 36.625 6.59375 
Q 46.09375 6.59375 50.34375 11.734375 
Q 54.59375 16.890625 54.59375 28.609375 
L 54.59375 72.90625 
L 64.5 72.90625 
L 64.5 27.390625 
Q 64.5 13.140625 57.4375 5.859375 
Q 50.390625 -1.421875 36.625 -1.421875 
Q 22.796875 -1.421875 15.734375 5.859375 
Q 8.6875 13.140625 8.6875 27.390625 
z
" id="DejaVuSans-85"/>
    </defs>
    <g transform="translate(459.443475 465.3408)scale(0.12 -0.12)">
     <use xlink:href="#DejaVuSans-85"/>
     <use x="73.193359" xlink:href="#DejaVuSans-112"/>
     <use x="136.669922" xlink:href="#DejaVuSans-119"/>
     <use x="218.457031" xlink:href="#DejaVuSans-97"/>
     <use x="279.736328" xlink:href="#DejaVuSans-114"/>
     <use x="320.833984" xlink:href="#DejaVuSans-100"/>
     <use x="384.310547" xlink:href="#DejaVuSans-32"/>
     <use x="416.097656" xlink:href="#DejaVuSans-115"/>
     <use x="468.197266" xlink:href="#DejaVuSans-116"/>
     <use x="507.40625" xlink:href="#DejaVuSans-101"/>
     <use x="568.929688" xlink:href="#DejaVuSans-112"/>
     <use x="632.40625" xlink:href="#DejaVuSans-115"/>
     <use x="684.505859" xlink:href="#DejaVuSans-32"/>
     <use x="716.292969" xlink:href="#DejaVuSans-102"/>
     <use x="751.498047" xlink:href="#DejaVuSans-111"/>
     <use x="812.679688" xlink:href="#DejaVuSans-114"/>
     <use x="853.792969" xlink:href="#DejaVuSans-32"/>
     <use x="885.580078" xlink:href="#DejaVuSans-97"/>
     <use x="946.859375" xlink:href="#DejaVuSans-100"/>
     <use x="1010.335938" xlink:href="#DejaVuSans-106"/>
     <use x="1038.119141" xlink:href="#DejaVuSans-117"/>
     <use x="1101.498047" xlink:href="#DejaVuSans-115"/>
     <use x="1153.597656" xlink:href="#DejaVuSans-116"/>
     <use x="1192.806641" xlink:href="#DejaVuSans-109"/>
     <use x="1290.21875" xlink:href="#DejaVuSans-101"/>
     <use x="1351.742188" xlink:href="#DejaVuSans-110"/>
     <use x="1415.121094" xlink:href="#DejaVuSans-116"/>
     <use x="1454.330078" xlink:href="#DejaVuSans-32"/>
     <use x="1486.117188" xlink:href="#DejaVuSans-112"/>
     <use x="1549.59375" xlink:href="#DejaVuSans-101"/>
     <use x="1611.117188" xlink:href="#DejaVuSans-114"/>
     <use x="1652.199219" xlink:href="#DejaVuSans-99"/>
     <use x="1707.179688" xlink:href="#DejaVuSans-101"/>
     <use x="1768.703125" xlink:href="#DejaVuSans-110"/>
     <use x="1832.082031" xlink:href="#DejaVuSans-116"/>
     <use x="1871.291016" xlink:href="#DejaVuSans-97"/>
     <use x="1932.570312" xlink:href="#DejaVuSans-103"/>
     <use x="1996.046875" xlink:href="#DejaVuSans-101"/>
     <use x="2057.570312" xlink:href="#DejaVuSans-32"/>
     <use x="2089.357422" xlink:href="#DejaVuSans-61"/>
     <use x="2173.146484" xlink:href="#DejaVuSans-32"/>
     <use x="2204.933594" xlink:href="#DejaVuSans-55"/>
     <use x="2268.556641" xlink:href="#DejaVuSans-46"/>
     <use x="2300.34375" xlink:href="#DejaVuSans-48"/>
     <use x="2363.966797" xlink:href="#DejaVuSans-37"/>
    </g>
   </g>
  </g>
 </g>
 <defs>
  <clipPath id="pa829bb90d7">
   <rect height="286.1712" width="1047.3408" x="83.3112" y="42.084"/>
  </clipPath>
  <clipPath id="p853040b899">
   <rect height="286.1712" width="1047.3408" x="83.3112" y="471.3408"/>
  </clipPath>
 </defs>
</svg>
